<?xml version="1.0" standalone="no"?>
<!DOCTYPE svg PUBLIC "-//W3C//DTD SVG 1.1//EN" "http://www.w3.org/Graphics/SVG/1.1/DTD/svg11.dtd" >
<svg>
<metadata>
Created by FontForge 20090914 at Thu Jun 23 17:38:54 2016
 By www-data
HTF Gotham&#194;&#170; &#194;&#169; 2000 The Hoefler Type Foundry, Inc. Info: www.typography.com
</metadata>
<defs>
<font id="Gotham-Light" horiz-adv-x="500" >
  <font-face 
    font-family="Gotham"
    font-weight="200"
    font-stretch="normal"
    units-per-em="1000"
    panose-1="2 0 3 3 0 0 0 0 0 0"
    ascent="800"
    descent="-200"
    x-height="510"
    cap-height="700"
    bbox="-67 -164.273 1145 898.001"
    underline-thickness="20"
    underline-position="-133"
    unicode-range="U+0001-U+2122"
  />
<missing-glyph horiz-adv-x="364" 
d="M33 0v666h265v-666h-265zM66 33h199v600h-199v-600z" />
    <glyph glyph-name=".notdef" horiz-adv-x="364" 
d="M33 0v666h265v-666h-265zM66 33h199v600h-199v-600z" />
    <glyph glyph-name="uni0000" horiz-adv-x="0" 
 />
    <glyph glyph-name="uni0000" horiz-adv-x="0" 
 />
    <glyph glyph-name="uni0001" horiz-adv-x="812" 
d="M134 0v327.999h-75v48h75v324h233c108.667 0 197.834 -33.167 267.501 -99.5s104.5 -149.166 104.5 -248.499v-2c0 -100 -34.833 -183.333 -104.5 -250s-158.834 -100 -267.501 -100h-233zM186 47.999l181 0.000976562c95.333 0 172.166 28.667 230.499 86
s87.5 128.666 87.5 213.999v2c0 85.333 -29.167 157 -87.5 215s-135.166 87 -230.499 87h-181v-276h232v-48h-232v-280z" />
    <glyph glyph-name="uni0002" horiz-adv-x="628" 
d="M309 -12c-70.667 0 -130.166 25.168 -178.499 75.501s-72.5 110.166 -72.5 179.499v2c0 70 23.667 127.667 71 173s103.666 68 168.999 68c63.333 0 122.333 -21 177 -63l-147 208l-133 -68l-29 36l137 67l-45 64h63l27 -41l98 50l28 -36l-102 -50l109 -161
c58 -86 87 -167 87 -243v-2c0 -70.667 -24.167 -131.5 -72.5 -182.5s-110.5 -76.5 -186.5 -76.5zM314.001 34.001c58.667 0 106.833 20.499 144.5 61.499s56.5 89.833 56.5 146.5v2c0 54.667 -20.333 101.334 -61 140.001s-90.667 58 -150 58c-58 0 -104.667 -19 -140 -57
s-53 -85.667 -53 -143v-2c0 -54 19.5 -101.833 58.5 -143.5s87.167 -62.5 144.5 -62.5z" />
    <glyph glyph-name="uni0003" horiz-adv-x="649" 
d="M134 0v316l-75 -23v48l75 23v336h51v-320l225 69v-48l-225 -69v-284h412v-48h-463z" />
    <glyph glyph-name="uni0004" horiz-adv-x="309" 
d="M130 0v336l-76 -24v50l76 23v345h49v-330l76 24v-50l-76 -24v-350h-49z" />
    <glyph glyph-name="uni0005" horiz-adv-x="640" 
d="M341 -10c-104.667 0 -198.665 37.3281 -281.998 111.995l34 39c39.333 -36.667 78.333 -63.167 117 -79.5s83.334 -24.5 134.001 -24.5c52 0 94.5 13.167 127.5 39.5s49.5 59.5 49.5 99.5v2c0 38.667 -13.833 69.334 -41.5 92.001s-79.834 41.667 -156.501 57
c-84 16.667 -144.333 40.334 -181 71.001s-55 72.667 -55 126v2c0 52 21.333 95.667 64 131s96.334 53 161.001 53c49.333 0 92.5 -6.83301 129.5 -20.5s73.833 -35.167 110.5 -64.5l-33 -41c-60.667 52.667 -130.334 79 -209.001 79
c-50.667 0 -91.834 -12.667 -123.501 -38s-47.5 -56.666 -47.5 -93.999v-2c0 -39.333 14.167 -70.666 42.5 -93.999s82.166 -43 161.499 -59c80.667 -16.667 139.167 -40.167 175.5 -70.5s54.5 -71.166 54.5 -122.499v-2c0 -56 -21.667 -101.833 -65 -137.5
s-99 -53.5 -167 -53.5zM307.002 764.995l-100 122h47l74 -68l74 68h45l-100 -122h-40z" />
    <glyph glyph-name="uni0006" horiz-adv-x="497" 
d="M258 -10c-36.667 0 -73.832 6.83105 -111.499 20.498s-70.167 31.5 -97.5 53.5l29 39c58 -44.667 119 -67 183 -67c35.333 0 64.666 9 87.999 27s35 41.333 35 70v2c0 11.333 -2.5 21.833 -7.5 31.5s-11.333 17.834 -19 24.501s-18 13 -31 19s-25 10.833 -36 14.5
s-24.833 7.83398 -41.5 12.501c-23.333 6.66699 -40.333 11.667 -51 15s-25.667 9.33301 -45 18s-33.5 17.167 -42.5 25.5s-17.333 19.666 -25 33.999s-11.5 30.166 -11.5 47.499v2c0 41.333 15.667 75.166 47 101.499s71.666 39.5 120.999 39.5
c64.667 0 125 -18.667 181 -56l-26 -41c-51.333 34 -103.666 51 -156.999 51c-34.667 0 -62.667 -8.33301 -84 -25s-32 -38 -32 -64v-2c0 -10.667 2.83301 -20.667 8.5 -30s12.334 -17 20.001 -23s18.667 -12.167 33 -18.5s26.666 -11.166 36.999 -14.499
s24.833 -7.66602 43.5 -12.999c25.333 -7.33301 46 -14 62 -20s33.167 -14.5 51.5 -25.5s32 -24.667 41 -41s13.5 -35.166 13.5 -56.499v-2c0 -44.667 -16.833 -80.667 -50.5 -108s-75.5 -41 -125.5 -41zM231.002 594.998l-100 122h47l74 -68l74 68h45l-100 -122h-40z" />
    <glyph glyph-name="uni0007" horiz-adv-x="716" 
d="M332 0v277l-300 423h65l262 -376l263 376h62l-300 -422v-278h-52zM340 760l88 133l61 -30l-107 -103h-42z" />
    <glyph glyph-name="uni0008" horiz-adv-x="588" 
d="M155 -163c-34 0 -67.667 7.33301 -101 22l17 43c26 -12.667 55 -19 87 -19c26.667 0 49.667 9 69 27s38.333 49 57 93l-245 507h57l212 -456l184 456h54l-221 -528c-22 -52 -46.5 -89.167 -73.5 -111.5s-59.167 -33.5 -96.5 -33.5zM281 590l88 133l61 -30l-107 -103h-42z
" />
    <glyph glyph-name="uni000B" horiz-adv-x="673" 
d="M104 0l-0.000976562 700h52v-127h202c78 0 140.833 -19 188.5 -57s71.5 -90.333 71.5 -157v-2c0 -70.667 -26.167 -125.667 -78.5 -165s-117.166 -59 -194.499 -59h-189v-133h-52zM155.999 181h192c65.333 0 118 15.833 158 47.5s60 73.5 60 125.5v2
c0 54 -19.167 95.667 -57.5 125s-89.833 44 -154.5 44h-198v-344z" />
    <glyph glyph-name="uni000C" horiz-adv-x="660" 
d="M93 -160v889.999h49v-334c55.333 84 125.333 126 210 126c65.333 0 123 -24.333 173 -73s75 -112.667 75 -192v-2c0 -79.333 -25 -143.666 -75 -192.999s-107.667 -74 -173 -74c-86.667 0 -156.667 40.667 -210 122v-270h-49zM347 34.999c57.333 0 105 19.667 143 59
s57 92.333 57 159v2c0 65.333 -19.5 118.333 -58.5 159s-86.167 61 -141.5 61s-103.833 -20.833 -145.5 -62.5s-62.5 -93.834 -62.5 -156.501v-2c0 -63.333 20.833 -115.666 62.5 -156.999s90.167 -62 145.5 -62z" />
    <glyph glyph-name="uni000E" horiz-adv-x="688" 
d="M68 0v29l479 624h-462v47h536v-29l-479 -624h479v-47h-553zM329 765l-100 122h47l74 -68l74 68h45l-100 -122h-40z" />
    <glyph glyph-name="uni000F" horiz-adv-x="554" 
d="M58 0v28l368 438h-354v44h427v-28l-368 -438h368v-44h-441zM266 595l-100 122h47l74 -68l74 68h45l-100 -122h-40z" />
    <glyph glyph-name="space" unicode=" " horiz-adv-x="300" 
 />
    <glyph glyph-name="exclam" unicode="!" horiz-adv-x="252" 
d="M112 183l-15 447v70h58v-70l-15 -447h-28zM93 0v85h66v-85h-66z" />
    <glyph glyph-name="quotedbl" unicode="&#x22;" horiz-adv-x="410" 
d="M248 446l35 254h65v-5l-71 -249h-29zM68 446l35 254h65v-5l-71 -249h-29z" />
    <glyph glyph-name="numbersign" unicode="#" horiz-adv-x="700" 
d="M138 0l32 187h-121v47h129l41 236h-130v47h138l31 183h48l-31 -183h207l31 183h48l-31 -183h120v-47h-128l-41 -236h129v-47h-137l-32 -187h-48l32 187h-207l-32 -187h-48zM226 234h207l41 236h-207z" />
    <glyph glyph-name="dollar" unicode="$" horiz-adv-x="632" 
d="M297 -98l-0.000976562 99.0029c-86 7.33301 -165 43 -237 107l33 39c64.667 -60.667 133.334 -94 206.001 -100v284c-74.667 16.667 -128.667 39.667 -162 69s-50 68.666 -50 117.999v2c0 50 19.833 92.167 59.5 126.5s89.834 52.166 150.501 53.499v58h48v-60
c68 -5.33301 132.333 -32.666 193 -81.999l-33 -39c-49.333 43.333 -103.333 68.666 -162 75.999v-281c75.333 -16 130.166 -38.833 164.499 -68.5s51.5 -68.834 51.5 -117.501v-2c0 -52 -19.833 -95 -59.5 -129s-91.167 -52.333 -154.5 -55v-98h-48zM298.999 382.003
v273.001c-47.333 -0.666992 -86 -13.667 -116 -39s-45 -56 -45 -92v-2c0 -34.667 11.333 -62.834 34 -84.501s65 -40.167 127 -55.5zM342.999 45.0039c49.333 1.33301 89.166 14.667 119.499 40s45.5 57 45.5 95v2c0 36 -11.667 64.5 -35 85.5s-66.666 38.833 -129.999 53.5
v-276z" />
    <glyph glyph-name="percent" unicode="%" horiz-adv-x="824" 
d="M208 350c-44.667 0 -81.334 17.5 -110.001 52.5s-43 76.5 -43 124.5v2c0 48.667 14.5 90.667 43.5 126s66.167 53 111.5 53c44.667 0 81.334 -17.5 110.001 -52.5s43 -76.5 43 -124.5v-2c0 -48.667 -14.5 -90.667 -43.5 -126s-66.167 -53 -111.5 -53zM128 0l514 700h54
l-514 -700h-54zM614 -8c-44.667 0 -81.334 17.5 -110.001 52.5s-43 76.5 -43 124.5v2c0 48.667 14.5 90.667 43.5 126s66.167 53 111.5 53c44.667 0 81.334 -17.5 110.001 -52.5s43 -76.5 43 -124.5v-2c0 -48.667 -14.5 -90.667 -43.5 -126s-66.167 -53 -111.5 -53zM210 393
c29.333 0 53.5 12.833 72.5 38.5s28.5 57.5 28.5 95.5v2c0 38.667 -10 71 -30 97s-44.333 39 -73 39c-29.333 0 -53.5 -13 -72.5 -39s-28.5 -57.667 -28.5 -95v-2c0 -38.667 10 -71 30 -97s44.333 -39 73 -39zM616 35c29.333 0 53.5 12.833 72.5 38.5s28.5 57.5 28.5 95.5v2
c0 38.667 -10 71 -30 97s-44.333 39 -73 39c-29.333 0 -53.5 -13 -72.5 -39s-28.5 -57.667 -28.5 -95v-2c0 -38.667 10 -71 30 -97s44.333 -39 73 -39z" />
    <glyph glyph-name="ampersand" unicode="&#x26;" horiz-adv-x="696" 
d="M622 -14l-121 124.999c-69.333 -80.667 -148.333 -121 -237 -121c-62 0 -113.333 18.167 -154 54.5s-61 82.833 -61 139.5v2c0 92 60.333 160.333 181 205c-28 30.667 -48 58 -60 82s-18 50 -18 78v2c0 45.333 16.5 83.166 49.5 113.499s74.833 45.5 125.5 45.5
c45.333 0 83.5 -14.833 114.5 -44.5s46.5 -65.5 46.5 -107.5v-2c0 -81.333 -57.333 -141.666 -172 -180.999l184 -189c32 44.667 62.333 101.334 91 170.001l47 -19c-34 -76.667 -68.667 -138.667 -104 -186l129 -133zM285 408.999
c100.667 32 150.998 81.001 150.998 147.001v2c0 31.333 -10.667 57.5 -32 78.5s-47.666 31.5 -78.999 31.5c-35.333 0 -64.333 -10.833 -87 -32.5s-34 -48.5 -34 -80.5v-2c0 -22 5.83301 -43.333 17.5 -64s32.834 -47.334 63.501 -80.001zM264.998 35
c72.667 0 140.333 36.666 203 109.999l-207 214c-53.333 -18 -93.333 -42.167 -120 -72.5s-40 -63.166 -40 -98.499v-2c0 -42.667 15.5 -78.5 46.5 -107.5s70.167 -43.5 117.5 -43.5z" />
    <glyph glyph-name="quotesingle" unicode="'" horiz-adv-x="230" 
d="M68 446l35 254h65v-5l-71 -249h-29z" />
    <glyph glyph-name="parenleft" unicode="(" horiz-adv-x="430" 
d="M348 -141c-89.333 50.667 -157.833 112.334 -205.5 185.001s-71.5 153.667 -71.5 243s23.833 170.333 71.5 243s116.167 134.334 205.5 185.001l21 -33c-164 -100.667 -246 -232.334 -246 -395.001s82 -294.334 246 -395.001z" />
    <glyph glyph-name="parenright" unicode=")" horiz-adv-x="430" 
d="M82 -141l-21 33c164 100.667 246 232.334 246 395.001s-82 294.334 -246 395.001l21 33c89.333 -50.667 157.833 -112.334 205.5 -185.001s71.5 -153.667 71.5 -243s-23.833 -170.333 -71.5 -243s-116.167 -134.334 -205.5 -185.001z" />
    <glyph glyph-name="asterisk" unicode="*" horiz-adv-x="430" 
d="M194 406l9 127l-106 -72l-22 37l118 56l-118 56l22 37l106 -72l-9 127h42l-9 -127l106 72l22 -37l-118 -56l118 -56l-22 -37l-106 72l9 -127h-42z" />
    <glyph glyph-name="plus" unicode="+" horiz-adv-x="640" 
d="M295 113v215h-217v48h217v215h50v-215h217v-48h-217v-215h-50z" />
    <glyph glyph-name="comma" unicode="," horiz-adv-x="230" 
d="M65 -107l-12 25.001c22 11.333 37.167 23.166 45.5 35.499s11.833 27.833 10.5 46.5h-27v85h66v-74c0 -31.333 -6.33301 -56 -19 -74s-34 -32.667 -64 -44z" />
    <glyph glyph-name="hyphen" unicode="-" horiz-adv-x="408" 
d="M70 269v56h268v-56h-268z" />
    <glyph glyph-name="period" unicode="." horiz-adv-x="230" 
d="M82 0v85h66v-85h-66z" />
    <glyph glyph-name="slash" unicode="/" 
d="M-18 -128l472 926h49l-472 -926h-49z" />
    <glyph glyph-name="zero" unicode="0" horiz-adv-x="710" 
d="M354 -12c-86.667 0 -156.5 35 -209.5 105s-79.5 155 -79.5 255v2c0 64.667 11.667 124.334 35 179.001s57.5 98.834 102.5 132.501s96.167 50.5 153.5 50.5c86.667 0 156.5 -35 209.5 -105s79.5 -155 79.5 -255v-2c0 -64.667 -11.667 -124.334 -35 -179.001
s-57.5 -98.834 -102.5 -132.501s-96.167 -50.5 -153.5 -50.5zM356 35c70 0 126.667 31.002 170 93.002s65 135.333 65 220v2c0 85.333 -22 159.166 -66 221.499s-101 93.5 -171 93.5s-126.667 -30.833 -170 -92.5s-65 -135.167 -65 -220.5v-2
c0 -84.667 22 -158.334 66 -221.001s101 -94 171 -94z" />
    <glyph glyph-name="one" unicode="1" horiz-adv-x="335" 
d="M179 0v651l-135 -46l-14 41l160 59h40v-705h-51z" />
    <glyph glyph-name="two" unicode="2" horiz-adv-x="590" 
d="M48 0l0.00292969 39l261 236c58 52.667 98.333 96.5 121 131.5s34 70.833 34 107.5c0 44 -15.5 80 -46.5 108s-68.167 42 -111.5 42c-42.667 0 -79.834 -10.667 -111.501 -32s-62.834 -54 -93.501 -98l-39 26c33.333 50.667 68.666 88.334 105.999 113.001s85 37 143 37
c59.333 0 108.833 -18.333 148.5 -55s59.5 -82.334 59.5 -137.001v-2c0 -46 -12.833 -88 -38.5 -126s-71.167 -86.667 -136.5 -146l-214 -194h396v-50h-478z" />
    <glyph glyph-name="three" unicode="3" horiz-adv-x="610" 
d="M311 -12c-106.667 0 -192.334 42 -257.001 126l40 33c58.667 -74.667 131.334 -112 218.001 -112c48 0 88.833 14.5 122.5 43.5s50.5 66.167 50.5 111.5v2c0 48 -20.167 85.333 -60.5 112s-92.833 40 -157.5 40h-38l-13 29l241 278h-367v49h438v-37l-237 -271
c72 -4 131.333 -22.833 178 -56.5s70 -80.834 70 -141.501v-2c0 -59.333 -22.5 -108.166 -67.5 -146.499s-98.5 -57.5 -160.5 -57.5z" />
    <glyph glyph-name="four" unicode="4" horiz-adv-x="664" 
d="M445 0v171h-379l-18 39l400 495h47v-489h114v-45h-114v-171h-50zM111 216h334v414z" />
    <glyph glyph-name="five" unicode="5" horiz-adv-x="605" 
d="M302 -12c-45.333 0 -89.332 10.5 -131.999 31.5s-80.334 48.167 -113.001 81.5l37 37c68.667 -68.667 138.667 -103 210 -103c54.667 0 99.667 16.833 135 50.5s53 75.5 53 125.5v2c0 48.667 -17.833 88.5 -53.5 119.5s-81.834 46.5 -138.501 46.5
c-51.333 0 -104 -14.667 -158 -44l-40 26l20 339h393v-50h-347l-17 -262c52 25.333 103.667 38 155 38c68.667 0 125.834 -19.667 171.501 -59s68.5 -90 68.5 -152v-2c0 -66 -23 -120 -69 -162s-104.333 -63 -175 -63z" />
    <glyph glyph-name="six" unicode="6" horiz-adv-x="642" 
d="M331 -12c-72 0 -131.333 23.332 -178 69.999c-30.667 30.667 -53.167 66.5 -67.5 107.5s-21.5 96.167 -21.5 165.5v2c0 108 26.167 198.167 78.5 270.5s121.166 108.5 206.499 108.5c68.667 0 136 -27 202 -81l-33 -40c-55.333 49.333 -113 74 -173 74
c-70.667 0 -127.167 -33.667 -169.5 -101s-62.166 -154.666 -59.499 -261.999c50.667 86.667 123.667 130 219 130c65.333 0 121.833 -20.167 169.5 -60.5s71.5 -90.833 71.5 -151.5v-2c0 -66 -23.5 -120.833 -70.5 -164.5s-105.167 -65.5 -174.5 -65.5zM335 34.999
c55.333 0 100.331 17.5 134.998 52.5s52 77.833 52 128.5v2c0 48 -17.833 88 -53.5 120s-81.167 48 -136.5 48s-101.666 -17.667 -138.999 -53s-56 -75.333 -56 -120v-2c0 -50 18.833 -91.833 56.5 -125.5s84.834 -50.5 141.501 -50.5z" />
    <glyph glyph-name="seven" unicode="7" horiz-adv-x="587" 
d="M156 0l318 650h-406v50h464v-38l-319 -662h-57z" />
    <glyph glyph-name="eight" unicode="8" horiz-adv-x="630" 
d="M315 -10c-74 0 -135.833 18.5 -185.5 55.5s-74.5 84.167 -74.5 141.5v2c0 39.333 14.333 74.166 43 104.499s66 53.166 112 68.499c-87.333 35.333 -131 89.666 -131 162.999v2c0 52.667 23.667 96.334 71 131.001s102.333 52 165 52s117.667 -17.333 165 -52
s71 -78.334 71 -131.001v-2c0 -73.333 -43.667 -127.666 -131 -162.999c46 -15.333 83.333 -38.166 112 -68.499s43 -65.166 43 -104.499v-2c0 -57.333 -24.833 -104.5 -74.5 -141.5s-111.5 -55.5 -185.5 -55.5zM315 381c50.667 0 93.667 13.5 129 40.5s53 61.5 53 103.5v2
c0 39.333 -17.5 71.833 -52.5 97.5s-78.167 38.5 -129.5 38.5s-94.5 -12.833 -129.5 -38.5s-52.5 -58.167 -52.5 -97.5v-2c0 -42 17.667 -76.5 53 -103.5s78.333 -40.5 129 -40.5zM315 37c62.667 0 112.667 14.333 150 43s56 63.667 56 105v2
c0 43.333 -20 79.166 -60 107.499s-88.667 42.5 -146 42.5s-106 -14.167 -146 -42.5s-60 -64.166 -60 -107.499v-2c0 -41.333 18.667 -76.333 56 -105s87.333 -43 150 -43z" />
    <glyph glyph-name="nine" unicode="9" horiz-adv-x="642" 
d="M293 -12c-72 0 -142.332 28.999 -210.999 86.999l33 40c59.333 -53.333 119 -80 179 -80c70.667 0 128 34 172 102s64 154.333 60 259c-50 -90 -122.667 -135 -218 -135c-70 0 -127.833 20.5 -173.5 61.5s-68.5 91.833 -68.5 152.5v2c0 66 23 121.667 69 167
s105 68 177 68c71.333 0 130.666 -23.667 177.999 -71c58.667 -58.667 88 -149.667 88 -273v-2c0 -109.333 -27 -199.666 -81 -270.999s-122 -107 -204 -107zM310.001 306.999c56.667 0 103.332 18.001 139.999 54.001s55 77.333 55 124v2c0 50 -18.833 92.167 -56.5 126.5
s-85.167 51.5 -142.5 51.5c-55.333 0 -100.166 -18.333 -134.499 -55s-51.5 -80.334 -51.5 -131.001v-2c0 -49.333 17.833 -90 53.5 -122s81.167 -48 136.5 -48z" />
    <glyph glyph-name="colon" unicode=":" horiz-adv-x="240" 
d="M87 425v85h66v-85h-66zM87 0v85h66v-85h-66z" />
    <glyph glyph-name="semicolon" unicode=";" horiz-adv-x="240" 
d="M87 425v85h66v-85h-66zM70 -107l-12 25.001c22 11.333 37.167 23.166 45.5 35.499s11.833 27.833 10.5 46.5h-27v85h66v-74c0 -31.333 -6.33301 -56 -19 -74s-34 -32.667 -64 -44z" />
    <glyph glyph-name="less" unicode="&#x3c;" horiz-adv-x="640" 
d="M537 91l-464 241v40l464 241v-54l-403 -206l403 -208v-54z" />
    <glyph glyph-name="equal" unicode="=" horiz-adv-x="640" 
d="M93 439v51h454v-51h-454zM93 214v51h454v-51h-454z" />
    <glyph glyph-name="greater" unicode="&#x3e;" horiz-adv-x="640" 
d="M103 91v54l403 206l-403 208v54l464 -241v-40z" />
    <glyph glyph-name="question" unicode="?" horiz-adv-x="534" 
d="M229 183l-13.001 162.001l5 5c65.333 1.33301 116.333 16.333 153 45s55 67 55 115v2c0 42 -15.333 77.667 -46 107s-70.667 44 -120 44c-72.667 0 -137 -34.333 -193 -103l-36 30c30.667 38.667 64.334 68.167 101.001 88.5s80 30.5 130 30.5
c64.667 0 117 -18.833 157 -56.5s60 -83.834 60 -138.501v-2c0 -58.667 -19.833 -105.5 -59.5 -140.5s-90.5 -56.167 -152.5 -63.5l-9 -125h-32zM211.999 0.000976562v85h66v-85h-66z" />
    <glyph glyph-name="at" unicode="@" horiz-adv-x="980" 
d="M499 -162c-126.667 0 -232.667 42.498 -318 127.498s-128 187.833 -128 308.5c0 120 42.5 223 127.5 309s188.5 129 310.5 129c121.333 0 224.333 -39.333 309 -118s127 -171.334 127 -278.001c0 -79.333 -18.333 -139.666 -55 -180.999s-79 -62 -127 -62
c-34.667 0 -63.834 8.33301 -87.501 25s-39.834 39.334 -48.501 68.001c-50 -62 -107 -93 -171 -93c-49.333 0 -91.166 16.667 -125.499 50s-51.5 76 -51.5 128c0 68.667 24.167 127.334 72.5 176.001s101.833 73 160.5 73c68 0 117.667 -29.667 149 -89l14 75l48 -6
l-37 -211c-6 -35.333 -9 -59.333 -9 -72c0 -28.667 7.83301 -50.5 23.5 -65.5s37.834 -22.5 66.501 -22.5c38.667 0 72.334 17.667 101.001 53s43 86.666 43 153.999c0 60.667 -17.167 118.834 -51.5 174.501s-82.833 101.167 -145.5 136.5s-131 53 -205 53
c-114.667 0 -210.667 -39.5 -288 -118.5s-116 -174.833 -116 -287.5c0 -113.333 38.833 -209 116.5 -287s176.167 -117 295.5 -117c89.333 0 172.666 22.667 249.999 68l15 -25c-82 -50 -170.333 -75 -265 -75zM446 119.998c46.667 0 88.333 19.833 125 59.5
s55 84.167 55 133.5c0 39.333 -12.5 72.333 -37.5 99s-56.5 40 -94.5 40c-46.667 0 -88.5 -19.167 -125.5 -57.5s-55.5 -84.833 -55.5 -139.5c0 -42 12.167 -75 36.5 -99s56.5 -36 96.5 -36z" />
    <glyph glyph-name="A" unicode="A" horiz-adv-x="790" 
d="M44 0l326 705h50l326 -705h-57l-89 196h-413l-89 -196h-54zM209 243h369l-184 405z" />
    <glyph glyph-name="B" unicode="B" horiz-adv-x="722" 
d="M104 0v700h289c80 0 140.667 -20.667 182 -62c30 -30 45 -66.667 45 -110v-2c0 -78.667 -39.667 -134 -119 -166c105.333 -27.333 158 -83 158 -167v-2c0 -58 -22.833 -104.333 -68.5 -139s-106.5 -52 -182.5 -52h-304zM156 377l231 0.00195312
c54 0 97.5 12.667 130.5 38s49.5 60.666 49.5 105.999v2c0 39.333 -15.333 70.666 -46 93.999s-73.667 35 -129 35h-236v-275zM156 48.002h254.001c60 0 107.667 12.833 143 38.5s53 60.5 53 104.5v2c0 43.333 -18.333 76.833 -55 100.5s-89.334 35.5 -158.001 35.5h-237
v-281z" />
    <glyph glyph-name="C" unicode="C" horiz-adv-x="738" 
d="M421 -12c-99.333 0 -182.165 34.6689 -248.498 104.002s-99.5 154.666 -99.5 255.999v2c0 100 33.333 185.333 100 256s150 106 250 106c58 0 107.833 -9.5 149.5 -28.5s82.5 -46.833 122.5 -83.5l-37 -38c-70.667 68.667 -149.334 103 -236.001 103
c-84 0 -154.167 -30.167 -210.5 -90.5s-84.5 -134.5 -84.5 -222.5v-2c0 -88.667 28.5 -163.334 85.5 -224.001s127.167 -91 210.5 -91c48.667 0 91.667 9 129 27s74.666 45.333 111.999 82l35 -34c-40.667 -40 -82.667 -70.333 -126 -91s-94 -31 -152 -31z" />
    <glyph glyph-name="D" unicode="D" horiz-adv-x="782" 
d="M104 0v699.999h233c108.667 0 197.834 -33.167 267.501 -99.5s104.5 -149.166 104.5 -248.499v-2c0 -100 -34.833 -183.333 -104.5 -250s-158.834 -100 -267.501 -100h-233zM156 47.999l181 0.000976562c95.333 0 172.166 28.667 230.499 86s87.5 128.666 87.5 213.999v2
c0 85.333 -29.167 157 -87.5 215s-135.166 87 -230.499 87h-181v-604z" />
    <glyph glyph-name="E" unicode="E" horiz-adv-x="670" 
d="M104 0v700h498v-48h-446v-275h401v-48h-401v-281h451v-48h-503z" />
    <glyph glyph-name="F" unicode="F" horiz-adv-x="656" 
d="M104 0v700h493v-48h-441v-287h396v-48h-396v-317h-52z" />
    <glyph glyph-name="G" unicode="G" horiz-adv-x="784" 
d="M425 -12c-107.333 0 -192.832 34.501 -256.499 103.501s-95.5 154.5 -95.5 256.5v2c0 98 32.333 182.833 97 254.5s147.667 107.5 249 107.5c54 0 100.833 -7.66699 140.5 -23s78.167 -38.333 115.5 -69l-34 -39c-64 56 -139 84 -225 84
c-83.333 0 -152.333 -30.667 -207 -92s-82 -135 -82 -221v-2c0 -92.667 27 -168.5 81 -227.5s127 -88.5 219 -88.5c42 0 82.833 7.5 122.5 22.5s73.167 34.167 100.5 57.5v201h-234v48h284v-270c-34.667 -30.667 -75.834 -55.834 -123.501 -75.501
s-98.167 -29.5 -151.5 -29.5z" />
    <glyph glyph-name="H" unicode="H" horiz-adv-x="760" 
d="M104 0v700h52v-324h448v324h52v-700h-52v328h-448v-328h-52z" />
    <glyph glyph-name="I" unicode="I" horiz-adv-x="274" 
d="M111 0v700h52v-700h-52z" />
    <glyph glyph-name="J" unicode="J" horiz-adv-x="549" 
d="M249 -10c-92.667 0 -163.332 43.668 -211.999 131.001l43 27c22.667 -38 47.167 -66 73.5 -84s59.166 -27 98.499 -27c44.667 0 81.167 16.333 109.5 49s42.5 78.667 42.5 138v476h52v-472c0 -78.667 -21.333 -139.334 -64 -182.001c-37.333 -37.333 -85 -56 -143 -56z
" />
    <glyph glyph-name="K" unicode="K" horiz-adv-x="715" 
d="M104 0v700h52v-460l446 460h71l-306 -309l319 -391h-68l-288 354l-174 -176v-178h-52z" />
    <glyph glyph-name="L" unicode="L" horiz-adv-x="619" 
d="M104 0v700h52v-652h411v-48h-463z" />
    <glyph glyph-name="M" unicode="M" horiz-adv-x="868" 
d="M104 0v700h49l281 -414l281 414h49v-700h-52v608l-277 -403h-4l-277 403v-608h-50z" />
    <glyph glyph-name="N" unicode="N" horiz-adv-x="790" 
d="M104 0v700h49l483 -609v609h50v-700h-39l-493 622v-622h-50z" />
    <glyph glyph-name="O" unicode="O" horiz-adv-x="850" 
d="M424 -12c-103.333 0 -187.666 35.334 -252.999 106.001s-98 155.334 -98 254.001v2c0 98.667 33 183.667 99 255s150.667 107 254 107s187.666 -35.333 252.999 -106s98 -155.334 98 -254.001c0.666992 -0.666992 0.666992 -1.33398 0 -2.00098
c0 -98.667 -33 -183.667 -99 -255s-150.667 -107 -254 -107zM426 35.001c85.333 0 156.166 30.333 212.499 91s84.5 134.667 84.5 222v2c0 87.333 -28.5 161.666 -85.5 222.999s-128.167 92 -213.5 92s-156.166 -30.333 -212.499 -91s-84.5 -134.667 -84.5 -222v-2
c0 -87.333 28.5 -161.666 85.5 -222.999s128.167 -92 213.5 -92z" />
    <glyph glyph-name="P" unicode="P" horiz-adv-x="668" 
d="M104 0l-0.000976562 700h254c78 0 140.833 -19 188.5 -57s71.5 -90.333 71.5 -157v-2c0 -70.667 -26.167 -125.5 -78.5 -164.5s-117.166 -58.5 -194.499 -58.5h-189v-261h-52zM155.999 309h192c65.333 0 118 15.667 158 47s60 73 60 125v2c0 54 -19.167 95.667 -57.5 125
s-89.833 44 -154.5 44h-198v-343z" />
    <glyph glyph-name="Q" unicode="Q" horiz-adv-x="850" 
d="M748 -21l-98 89.001c-62.667 -53.333 -138 -80 -226 -80c-103.333 0 -187.666 35.333 -252.999 106s-98 155.334 -98 254.001v2c0 98.667 33 183.667 99 255s150.667 107 254 107s187.666 -35.333 252.999 -106s98 -155.334 98 -254.001
c0.666992 -0.666992 0.666992 -1.33398 0 -2.00098c0 -96 -30.667 -178.333 -92 -247l100 -84zM426 35.001c71.333 0 133.332 22 185.999 66l-136 116l37 41l134 -122c50.667 59.333 76 130 76 212v2c0 87.333 -28.5 161.666 -85.5 222.999s-128.167 92 -213.5 92
s-156.166 -30.333 -212.499 -91s-84.5 -134.667 -84.5 -222v-2c0 -87.333 28.5 -161.666 85.5 -222.999s128.167 -92 213.5 -92z" />
    <glyph glyph-name="R" unicode="R" horiz-adv-x="723" 
d="M104 0v699.999h294c85.333 0 151 -23 197 -69c35.333 -35.333 53 -78.666 53 -129.999v-2c0 -56.667 -18.667 -102 -56 -136s-87 -55.333 -149 -64l231 -299h-66l-223 290h-2h-227v-290h-52zM156 336.999l235.999 0.000976562c60 0 109 14.333 147 43s57 67.667 57 117v2
c0 47.333 -17.667 84.666 -53 111.999s-84.666 41 -147.999 41h-239v-315z" />
    <glyph glyph-name="S" unicode="S" horiz-adv-x="640" 
d="M341 -10c-104.667 0 -198.665 37.3281 -281.998 111.995l34 39c39.333 -36.667 78.333 -63.167 117 -79.5s83.334 -24.5 134.001 -24.5c52 0 94.5 13.167 127.5 39.5s49.5 59.5 49.5 99.5v2c0 38.667 -13.833 69.334 -41.5 92.001s-79.834 41.667 -156.501 57
c-84 16.667 -144.333 40.334 -181 71.001s-55 72.667 -55 126v2c0 52 21.333 95.667 64 131s96.334 53 161.001 53c49.333 0 92.5 -6.83301 129.5 -20.5s73.833 -35.167 110.5 -64.5l-33 -41c-60.667 52.667 -130.334 79 -209.001 79
c-50.667 0 -91.834 -12.667 -123.501 -38s-47.5 -56.666 -47.5 -93.999v-2c0 -39.333 14.167 -70.666 42.5 -93.999s82.166 -43 161.499 -59c80.667 -16.667 139.167 -40.167 175.5 -70.5s54.5 -71.166 54.5 -122.499v-2c0 -56 -21.667 -101.833 -65 -137.5
s-99 -53.5 -167 -53.5z" />
    <glyph glyph-name="T" unicode="T" horiz-adv-x="648" 
d="M298 0v652h-244v48h540v-48h-244v-652h-52z" />
    <glyph glyph-name="U" unicode="U" horiz-adv-x="760" 
d="M380 -11c-86 0 -155.333 26.332 -208 78.999s-79 127 -79 223v409h52v-404c0 -82 21 -145.833 63 -191.5s100 -68.5 174 -68.5c72.667 0 129.667 21.833 171 65.5s62 106.834 62 189.501v409h52v-403c0 -98 -26 -173.833 -78 -227.5s-121.667 -80.5 -209 -80.5z" />
    <glyph glyph-name="V" unicode="V" horiz-adv-x="750" 
d="M352 -5l-308 705h58l274 -644l275 644h55l-308 -705h-46z" />
    <glyph glyph-name="W" unicode="W" horiz-adv-x="1102" 
d="M304 -5l-254 705h58l220 -623l205 625h40l205 -625l220 623h54l-254 -705h-42l-205 608l-205 -608h-42z" />
    <glyph glyph-name="X" unicode="X" horiz-adv-x="722" 
d="M51 0l279 357l-269 343h62l239 -308l238 308h61l-268 -342l278 -358h-62l-249 323l-248 -323h-61z" />
    <glyph glyph-name="Y" unicode="Y" horiz-adv-x="716" 
d="M332 0v277l-300 423h65l262 -376l263 376h62l-300 -422v-278h-52z" />
    <glyph glyph-name="Z" unicode="Z" horiz-adv-x="688" 
d="M68 0v29l479 624h-462v47h536v-29l-479 -624h479v-47h-553z" />
    <glyph glyph-name="bracketleft" unicode="[" horiz-adv-x="430" 
d="M98 -130v830h273v-38h-227v-754h227v-38h-273z" />
    <glyph glyph-name="backslash" unicode="\" 
d="M469 -128l-472 926h49l472 -926h-49z" />
    <glyph glyph-name="bracketright" unicode="]" horiz-adv-x="430" 
d="M59 -130v38h227v754h-227v38h273v-830h-273z" />
    <glyph glyph-name="asciicircum" unicode="^" 
d="M70 493l158 210h44l158 -210h-53l-128 167l-128 -167h-51z" />
    <glyph glyph-name="underscore" unicode="_" horiz-adv-x="600" 
d="M-2 -160v44h604v-44h-604z" />
    <glyph glyph-name="grave" unicode="`" 
d="M264 595l-107 103l61 30l88 -133h-42z" />
    <glyph glyph-name="a" unicode="a" horiz-adv-x="574" 
d="M248 -12c-52 0 -97.833 14.166 -137.5 42.499s-59.5 67.5 -59.5 117.5v2c0 52 20.333 92.667 61 122s94.667 44 162 44c57.333 0 113.666 -7.33301 168.999 -22v22c0 50.667 -14.667 89.334 -44 116.001s-70.666 40 -123.999 40s-106.666 -13.667 -159.999 -41l-18 43
c63.333 29.333 123.666 44 180.999 44c70 0 123.667 -18.667 161 -56c34.667 -34.667 52 -82.667 52 -144v-318h-48v85c-46 -64.667 -111 -97 -195 -97zM251 33.999c53.333 0 98.832 14.832 136.499 44.499s56.5 67.167 56.5 112.5v58c-60 15.333 -117.667 23 -173 23
c-53.333 0 -94.666 -10.833 -123.999 -32.5s-44 -50.5 -44 -86.5v-2c0 -35.333 14.5 -63.666 43.5 -84.999s63.833 -32 104.5 -32z" />
    <glyph glyph-name="b" unicode="b" horiz-adv-x="660" 
d="M352 -12c-86.667 0 -156.667 40.666 -210 121.999v-110h-49v730h49v-334c55.333 84 125.333 126 210 126c65.333 0 123 -24.333 173 -73s75 -112.667 75 -192v-2c0 -79.333 -25 -143.666 -75 -192.999s-107.667 -74 -173 -74zM347 34.999c57.333 0 105 19.667 143 59
s57 92.333 57 159v2c0 65.333 -19.5 118.333 -58.5 159s-86.167 61 -141.5 61s-103.833 -20.833 -145.5 -62.5s-62.5 -93.834 -62.5 -156.501v-2c0 -63.333 20.833 -115.666 62.5 -156.999s90.167 -62 145.5 -62z" />
    <glyph glyph-name="c" unicode="c" horiz-adv-x="571" 
d="M318 -12c-72.667 0 -134.168 26.166 -184.501 78.499s-75.5 114.5 -75.5 186.5v2c0 72 25.333 134.5 76 187.5s112 79.5 184 79.5c76 0 144 -31.333 204 -94l-35 -36c-54.667 56 -111.334 84 -170.001 84c-58 0 -106.833 -21.167 -146.5 -63.5
s-59.5 -94.166 -59.5 -155.499v-2c0 -61.333 20.333 -113.5 61 -156.5s90.334 -64.5 149.001 -64.5c63.333 0 120.333 28.333 171 85l34 -30c-59.333 -67.333 -128.666 -101 -207.999 -101z" />
    <glyph glyph-name="d" unicode="d" horiz-adv-x="660" 
d="M308 -12c-65.333 0 -123 24.334 -173 73.001s-75 112.667 -75 192v2c0 79.333 25 143.666 75 192.999s107.667 74 173 74c86.667 0 156.667 -40.667 210 -122v330h49v-730h-49v114c-55.333 -84 -125.333 -126 -210 -126zM313 35.001c55.333 0 103.833 20.833 145.5 62.5
s62.5 93.834 62.5 156.501v2c0 63.333 -20.833 115.666 -62.5 156.999s-90.167 62 -145.5 62c-57.333 0 -105 -19.667 -143 -59s-57 -92.333 -57 -159v-2c0 -65.333 19.5 -118.333 58.5 -159s86.167 -61 141.5 -61z" />
    <glyph glyph-name="e" unicode="e" horiz-adv-x="584" 
d="M308 -12c-68.667 0 -127.501 25 -176.501 75s-73.5 113.667 -73.5 191v2c0 74.667 23.167 137.667 69.5 189s103.833 77 172.5 77c70 0 126.5 -25.333 169.5 -76s64.5 -114.334 64.5 -191.001c0 -8 -0.333008 -14.667 -1 -20h-423
c4.66699 -61.333 26.167 -110.166 64.5 -146.499s83.5 -54.5 135.5 -54.5c66.667 0 125 26.667 175 80l34 -30c-59.333 -64 -129.666 -96 -210.999 -96zM109.999 279l370.999 0.000976562c-4 56 -21.667 103 -53 141s-74.666 57 -129.999 57
c-50 0 -92.667 -18.833 -128 -56.5s-55.333 -84.834 -60 -141.501z" />
    <glyph glyph-name="f" unicode="f" horiz-adv-x="362" 
d="M123 0v465h-74v45h74v50c0 58.667 15 103 45 133c26.667 26.667 62.334 40 107.001 40c27.333 0 52.666 -4 75.999 -12v-46c-28 8.66699 -53.333 13 -76 13c-68.667 0 -103 -43 -103 -129v-49h178v-45h-178v-465h-49z" />
    <glyph glyph-name="g" unicode="g" horiz-adv-x="660" 
d="M317 -162c-86 0 -164 26 -234 78l29 40c62 -48 130.667 -72 206 -72c60.667 0 109.167 17 145.5 51s54.5 83 54.5 147v74c-54.667 -78.667 -125.667 -118 -213 -118c-64.667 0 -121.667 22.5 -171 67.5s-74 102.5 -74 172.5v2c0 70.667 24.667 128.667 74 174
s106.333 68 171 68c88.667 0 159.667 -38 213 -114v102h49v-431c0 -72 -21.667 -129.667 -65 -173c-45.333 -45.333 -107 -68 -185 -68zM310 85c55.333 0 104.333 18.333 147 55s64 83 64 139v2c0 56.667 -21.167 103.167 -63.5 139.5s-91.5 54.5 -147.5 54.5
c-55.333 0 -102 -17.667 -140 -53s-57 -82 -57 -140v-2c0 -56 19.333 -102.5 58 -139.5s85 -55.5 139 -55.5z" />
    <glyph glyph-name="h" unicode="h" horiz-adv-x="613" 
d="M93 0l0.00292969 730.001h49v-315c40.667 71.333 102 107 184 107c63.333 0 113.166 -19.5 149.499 -58.5s54.5 -89.5 54.5 -151.5v-312h-49v303c0 53.333 -14.333 95.666 -43 126.999s-68.334 47 -119.001 47s-92.834 -17.167 -126.501 -51.5
s-50.5 -77.833 -50.5 -130.5v-295h-49z" />
    <glyph glyph-name="i" unicode="i" horiz-adv-x="249" 
d="M94 643v67h61v-67h-61zM100 0v510h49v-510h-49z" />
    <glyph glyph-name="j" unicode="j" horiz-adv-x="249" 
d="M94 643v67h61v-67h-61zM40 -163c-14 0 -27.667 1.33301 -41 4v43c12 -2 25.333 -3 40 -3c18.667 0 33.5 6 44.5 18s16.5 29.667 16.5 53v558h49v-555c0 -38.667 -9.66699 -68 -29 -88s-46 -30 -80 -30z" />
    <glyph glyph-name="k" unicode="k" horiz-adv-x="560" 
d="M93 0v730h49v-547l316 327h65l-223 -226l230 -284h-62l-202 249l-124 -125v-124h-49z" />
    <glyph glyph-name="l" unicode="l" horiz-adv-x="249" 
d="M100 0v730h49v-730h-49z" />
    <glyph glyph-name="m" unicode="m" horiz-adv-x="951" 
d="M93 0v509.999h49v-91c20 32 43 57.167 69 75.5s59.667 27.5 101 27.5c80 0 137.333 -36.667 172 -110c42.667 73.333 104 110 184 110c60 0 107.667 -19.333 143 -58s53 -90.334 53 -155.001v-309h-49v303c0 54.667 -13.333 97.334 -40 128.001s-63.667 46 -111 46
c-44.667 0 -82.667 -16.333 -114 -49s-47 -76.334 -47 -131.001v-297h-49v306c0 52.667 -13.5 94.334 -40.5 125.001s-63.167 46 -108.5 46s-83.833 -17.667 -115.5 -53s-47.5 -78.666 -47.5 -129.999v-294h-49z" />
    <glyph glyph-name="n" unicode="n" horiz-adv-x="613" 
d="M93 0l0.00292969 510.001h49v-95c40.667 71.333 102 107 184 107c63.333 0 113.166 -19.5 149.499 -58.5s54.5 -89.5 54.5 -151.5v-312h-49v303c0 53.333 -14.333 95.666 -43 126.999s-68.334 47 -119.001 47s-92.834 -17.167 -126.501 -51.5s-50.5 -77.833 -50.5 -130.5
v-295h-49z" />
    <glyph glyph-name="o" unicode="o" horiz-adv-x="640" 
d="M319 -12c-74.667 0 -136.834 26 -186.501 78s-74.5 114.333 -74.5 187v2c0 72.667 25.167 135.334 75.5 188.001s112.833 79 187.5 79s136.834 -26 186.501 -78s74.5 -114.333 74.5 -187v-2c0 -72.667 -25.167 -135.334 -75.5 -188.001s-112.833 -79 -187.5 -79zM321 34
c60 0 109.667 21.333 149 64s59 94.334 59 155.001v2c0 61.333 -20.333 113.5 -61 156.5s-90.334 64.5 -149.001 64.5c-60 0 -109.667 -21.333 -149 -64s-59 -94.334 -59 -155.001v-2c0 -61.333 20.333 -113.5 61 -156.5s90.334 -64.5 149.001 -64.5z" />
    <glyph glyph-name="p" unicode="p" horiz-adv-x="660" 
d="M93 -160v669.999h49v-114c55.333 84 125.333 126 210 126c65.333 0 123 -24.333 173 -73s75 -112.667 75 -192v-2c0 -79.333 -25 -143.666 -75 -192.999s-107.667 -74 -173 -74c-86.667 0 -156.667 40.667 -210 122v-270h-49zM347 34.999c57.333 0 105 19.667 143 59
s57 92.333 57 159v2c0 65.333 -19.5 118.333 -58.5 159s-86.167 61 -141.5 61s-103.833 -20.833 -145.5 -62.5s-62.5 -93.834 -62.5 -156.501v-2c0 -63.333 20.833 -115.666 62.5 -156.999s90.167 -62 145.5 -62z" />
    <glyph glyph-name="q" unicode="q" horiz-adv-x="660" 
d="M518 -160v274.001c-55.333 -84 -125.333 -126 -210 -126c-65.333 0 -123 24.333 -173 73s-75 112.667 -75 192v2c0 79.333 25 143.666 75 192.999s107.667 74 173 74c86.667 0 156.667 -40.667 210 -122v110h49v-670h-49zM313 35.001c55.333 0 103.833 20.833 145.5 62.5
s62.5 93.834 62.5 156.501v2c0 63.333 -20.833 115.666 -62.5 156.999s-90.167 62 -145.5 62c-57.333 0 -105 -19.667 -143 -59s-57 -92.333 -57 -159v-2c0 -65.333 19.5 -118.333 58.5 -159s86.167 -61 141.5 -61z" />
    <glyph glyph-name="r" unicode="r" horiz-adv-x="400" 
d="M93 0l0.000976562 509.998h49v-145c20.667 46.667 51.167 84.334 91.5 113.001s85.166 42 134.499 40v-54h-5c-62 0 -114.333 -22.667 -157 -68s-64 -107.666 -64 -186.999v-209h-49z" />
    <glyph glyph-name="s" unicode="s" horiz-adv-x="497" 
d="M258 -10c-36.667 0 -73.832 6.83105 -111.499 20.498s-70.167 31.5 -97.5 53.5l29 39c58 -44.667 119 -67 183 -67c35.333 0 64.666 9 87.999 27s35 41.333 35 70v2c0 11.333 -2.5 21.833 -7.5 31.5s-11.333 17.834 -19 24.501s-18 13 -31 19s-25 10.833 -36 14.5
s-24.833 7.83398 -41.5 12.501c-23.333 6.66699 -40.333 11.667 -51 15s-25.667 9.33301 -45 18s-33.5 17.167 -42.5 25.5s-17.333 19.666 -25 33.999s-11.5 30.166 -11.5 47.499v2c0 41.333 15.667 75.166 47 101.499s71.666 39.5 120.999 39.5
c64.667 0 125 -18.667 181 -56l-26 -41c-51.333 34 -103.666 51 -156.999 51c-34.667 0 -62.667 -8.33301 -84 -25s-32 -38 -32 -64v-2c0 -10.667 2.83301 -20.667 8.5 -30s12.334 -17 20.001 -23s18.667 -12.167 33 -18.5s26.666 -11.166 36.999 -14.499
s24.833 -7.66602 43.5 -12.999c25.333 -7.33301 46 -14 62 -20s33.167 -14.5 51.5 -25.5s32 -24.667 41 -41s13.5 -35.166 13.5 -56.499v-2c0 -44.667 -16.833 -80.667 -50.5 -108s-75.5 -41 -125.5 -41z" />
    <glyph glyph-name="t" unicode="t" horiz-adv-x="400" 
d="M263 -9c-42 0 -76.333 11.833 -103 35.5s-40 58.5 -40 104.5v334h-74v45h74v163h49v-163h179v-45h-179v-329c0 -66 34 -99 102 -99c23.333 0 48.333 6 75 18v-46c-26 -12 -53.667 -18 -83 -18z" />
    <glyph glyph-name="u" unicode="u" horiz-adv-x="613" 
d="M287 -12c-63.333 0 -113.169 19.499 -149.502 58.499s-54.5 89.5 -54.5 151.5v312h49v-303c0 -53.333 14.333 -95.666 43 -126.999s68.334 -47 119.001 -47s92.834 17.167 126.501 51.5s50.5 77.833 50.5 130.5v295h49v-510h-49v95c-40.667 -71.333 -102 -107 -184 -107z
" />
    <glyph glyph-name="v" unicode="v" horiz-adv-x="582" 
d="M270 -4l-229 514h57l193 -455l195 455h55l-229 -514h-42z" />
    <glyph glyph-name="w" unicode="w" horiz-adv-x="861" 
d="M236 -4l-187 514h55l154 -448l154 450h39l154 -450l154 448h53l-187 -514h-42l-152 437l-153 -437h-42z" />
    <glyph glyph-name="x" unicode="x" horiz-adv-x="570" 
d="M45 0l209 260l-201 250h61l172 -216l172 216h59l-201 -249l209 -261h-61l-180 227l-180 -227h-59z" />
    <glyph glyph-name="y" unicode="y" horiz-adv-x="588" 
d="M155 -163c-34 0 -67.667 7.33301 -101 22l17 43c26 -12.667 55 -19 87 -19c26.667 0 49.667 9 69 27s38.333 49 57 93l-245 507h57l212 -456l184 456h54l-221 -528c-22 -52 -46.5 -89.167 -73.5 -111.5s-59.167 -33.5 -96.5 -33.5z" />
    <glyph glyph-name="z" unicode="z" horiz-adv-x="554" 
d="M58 0v28l368 438h-354v44h427v-28l-368 -438h368v-44h-441z" />
    <glyph glyph-name="braceleft" unicode="{" horiz-adv-x="480" 
d="M416 -141c-44 8 -80.167 18.1689 -108.5 30.502s-49.833 27.333 -64.5 45s-24.667 36.334 -30 56.001s-8 43.5 -8 71.5v79c0 42 -8.83301 73.667 -26.5 95s-48.834 32 -93.501 32h-26v38h26c44.667 0 75.834 10.667 93.501 32s26.5 53 26.5 95v79
c0 28 2.66699 51.833 8 71.5s15.333 38.334 30 56.001s36.167 32.667 64.5 45s64.5 22.5 108.5 30.5l7 -32c-38.667 -10 -69 -19.833 -91 -29.5s-38.833 -21.834 -50.5 -36.501s-19.167 -29.834 -22.5 -45.501s-5 -37.5 -5 -65.5v-75c0 -42 -8.83301 -74 -26.5 -96
s-43.5 -38 -77.5 -48c36 -12 62.333 -28.5 79 -49.5s25 -52.5 25 -94.5v-75c0 -28 1.66699 -49.833 5 -65.5s10.833 -30.834 22.5 -45.501s28.5 -26.834 50.5 -36.501s52.333 -19.5 91 -29.5z" />
    <glyph glyph-name="bar" unicode="|" horiz-adv-x="286" 
d="M121 -128v926h44v-926h-44z" />
    <glyph glyph-name="braceright" unicode="}" horiz-adv-x="480" 
d="M64 -141l-7 31.998c38.667 10 69 19.833 91 29.5s38.833 21.834 50.5 36.501s19.167 29.834 22.5 45.501s5 37.5 5 65.5v75c0 42 8.83301 74 26.5 96s43.5 38 77.5 48c-36 12 -62.333 28.5 -79 49.5s-25 52.5 -25 94.5v75c0 28 -1.66699 49.833 -5 65.5
s-10.833 30.834 -22.5 45.501s-28.5 26.834 -50.5 36.501s-52.333 19.5 -91 29.5l7 32c44 -8 80.167 -18.167 108.5 -30.5s49.833 -27.333 64.5 -45s24.667 -36.334 30 -56.001s8 -43.5 8 -71.5v-79c0 -42 8.83301 -73.667 26.5 -95s48.834 -32 93.501 -32h26v-38h-26
c-44.667 0 -75.834 -10.667 -93.501 -32s-26.5 -53 -26.5 -95v-79c0 -28 -2.66699 -51.833 -8 -71.5s-15.333 -38.334 -30 -56.001s-36.167 -32.667 -64.5 -45s-64.5 -22.5 -108.5 -30.5z" />
    <glyph glyph-name="asciitilde" unicode="~" horiz-adv-x="460" 
d="M116 242l-34.0029 9c9.33301 34.667 20.5 58.834 33.5 72.501s29.833 20.5 50.5 20.5c13.333 0 35.333 -6.83301 66 -20.5s51.334 -20.5 62.001 -20.5c12 0 21.5 3.5 28.5 10.5s14.167 20.167 21.5 39.5l34 -9c-9.33301 -34.667 -20.5 -58.834 -33.5 -72.501
s-29.833 -20.5 -50.5 -20.5c-13.333 0 -35.166 6.83301 -65.499 20.5s-51.166 20.5 -62.499 20.5c-12 0 -21.5 -3.5 -28.5 -10.5s-14.167 -20.167 -21.5 -39.5z" />
    <glyph glyph-name="uni00A0" unicode="&#xa0;" horiz-adv-x="410" 
d="M183 238l5 286l-125 -7v45l124 -7l-7 145h50l-7 -145l124 7v-45l-125 7l5 -286h-44z" />
    <glyph glyph-name="exclamdown" unicode="&#xa1;" horiz-adv-x="450" 
d="M225 412c-40 0 -75.167 14.667 -105.5 44s-45.5 63.333 -45.5 102v2c0 38.667 15.167 72.667 45.5 102s65.5 44 105.5 44s75.167 -14.667 105.5 -44s45.5 -63.333 45.5 -102v-2c0 -38.667 -15.167 -72.667 -45.5 -102s-65.5 -44 -105.5 -44zM225 456
c28.667 0 52.667 10.167 72 30.5s29 44.166 29 71.499v2c0 27.333 -9.66699 51.166 -29 71.499s-43.333 30.5 -72 30.5s-52.667 -10.167 -72 -30.5s-29 -44.166 -29 -71.499v-2c0 -27.333 9.66699 -51.166 29 -71.499s43.333 -30.5 72 -30.5z" />
    <glyph glyph-name="cent" unicode="&#xa2;" horiz-adv-x="581" 
d="M214 -6l21.998 109c-51.333 18 -93.166 50 -125.499 96s-48.5 97.333 -48.5 154v2c0 72 25.333 134.5 76 187.5s112 79.5 184 79.5h15l16 84h50l-18 -91c49.333 -12 96.333 -41 141 -87l-35 -36c-40.667 42 -80 67.667 -118 77l-83 -432c11.333 -2 23 -3 35 -3
c63.333 0 120.333 28.333 171 85l34 -30c-59.333 -67.333 -128.666 -101 -207.999 -101c-13.333 0 -26.333 1 -39 3l-19 -97h-50zM247.998 149l82 426.999h-9c-58 0 -106.833 -21.167 -146.5 -63.5s-59.5 -94.166 -59.5 -155.499v-2c0 -46.667 12.333 -88.667 37 -126
s56.667 -64 96 -80z" />
    <glyph glyph-name="sterling" unicode="&#xa3;" horiz-adv-x="644" 
d="M70 0l0.000976562 25.001l86 20v260h-86v48h86v118c0 77.333 21.667 137.666 65 180.999c38.667 38.667 88.667 58 150 58c86 0 156 -35.333 210 -106l-40 -31c-23.333 29.333 -48 51.666 -74 66.999s-58.333 23 -97 23c-46.667 0 -84.334 -14.333 -113.001 -43
c-33.333 -33.333 -50 -82.666 -50 -147.999v-119h298v-48h-298v-258h374v-47h-511z" />
    <glyph glyph-name="currency" unicode="&#xa4;" horiz-adv-x="632" 
d="M329 -10c-43.333 0 -84.833 8.66699 -124.5 26s-73.834 40.333 -102.501 69l38 36c53.333 -54.667 118 -82 194 -82c38 0 66.833 7.16699 86.5 21.5s29.5 32.833 29.5 55.5v2c0 22 -13.667 41.167 -41 57.5s-74.666 32.5 -141.999 48.5c-74 18 -126.167 37.5 -156.5 58.5
s-45.5 47.833 -45.5 80.5v2c0 29.333 13.333 54.166 40 74.499s62.667 33.166 108 38.499c-57.333 25.333 -86 60.333 -86 105v2c0 37.333 16.167 67.5 48.5 90.5s74.833 34.5 127.5 34.5c43.333 0 84.833 -8.66699 124.5 -26s73.834 -40.333 102.501 -69l-38 -36
c-53.333 54.667 -118 82 -194 82c-38 0 -66.833 -7.16699 -86.5 -21.5s-29.5 -32.833 -29.5 -55.5v-2c0 -22 13.667 -41.167 41 -57.5s74.666 -32.5 141.999 -48.5c74 -18 126.167 -37.5 156.5 -58.5s45.5 -47.833 45.5 -80.5v-2c0 -29.333 -13.333 -54.166 -40 -74.499
s-62.667 -33.166 -108 -38.499c57.333 -25.333 86 -60.333 86 -105v-2c0 -37.333 -16.167 -67.5 -48.5 -90.5s-74.833 -34.5 -127.5 -34.5zM386 253c38 0 69 7.83301 93 23.5s36 33.834 36 54.501v2c0 19.333 -11.5 36.833 -34.5 52.5s-63.833 30.834 -122.5 45.501
c-42.667 10.667 -80 16 -112 16c-38 0 -69 -7.83301 -93 -23.5s-36 -33.834 -36 -54.501v-2c0 -19.333 11.5 -36.833 34.5 -52.5s63.833 -30.834 122.5 -45.501c42 -10.667 79.333 -16 112 -16z" />
    <glyph glyph-name="yen" unicode="&#xa5;" horiz-adv-x="470" 
d="M235 228c-34 0 -63.167 12 -87.5 36s-36.5 53 -36.5 87v2c0 33.333 12.5 62.166 37.5 86.499s53.833 36.5 86.5 36.5s61.5 -12.167 86.5 -36.5s37.5 -53.166 37.5 -86.499v-2c0 -34 -12.167 -63 -36.5 -87s-53.5 -36 -87.5 -36z" />
    <glyph glyph-name="brokenbar" unicode="&#xa6;" horiz-adv-x="480" 
d="M333 0v276.999h-6c-79.333 0 -144.833 18.833 -196.5 56.5s-77.5 89.167 -77.5 154.5v2c0 64.667 24 115.834 72 153.501s110.333 56.5 187 56.5h74v-700h-53z" />
    <glyph glyph-name="section" unicode="&#xa7;" horiz-adv-x="620" 
d="M289 -2l-0.000976562 43c67.333 1.33301 120 14.5 158 39.5s57 60.5 57 106.5v2c0 86.667 -71.667 137.667 -215 153v41c113.333 34.667 170 93 170 175v2c0 38 -13.833 69.333 -41.5 94s-63.5 37 -107.5 37c-49.333 0 -89.666 -17.333 -120.999 -52s-47 -81 -47 -139
v-500h-49v500c0 70 20 127 60 171s93.333 66 160 66c59.333 0 107.333 -16.667 144 -50s55 -75 55 -125v-2c0 -45.333 -15.167 -84.333 -45.5 -117s-67.5 -57 -111.5 -73c58.667 -10 107 -29.833 145 -59.5s57 -69.5 57 -119.5v-2c0 -60 -24 -106.833 -72 -140.5
s-113.333 -50.5 -196 -50.5z" />
    <glyph glyph-name="dieresis" unicode="&#xa8;" horiz-adv-x="830" 
d="M414 -12c-100.667 0 -186 35.167 -256 105.5s-105 155.166 -105 254.499v2c0 99.333 35.333 184.5 106 255.5s156.334 106.5 257.001 106.5s186 -35.167 256 -105.5s105 -155.166 105 -254.499v-2c0 -99.333 -35.333 -184.5 -106 -255.5s-156.334 -106.5 -257.001 -106.5
zM414 16c94 0 173 32.5 237 97.5s96 143.833 96 236.5v2c0 92 -31.667 170.333 -95 235s-142 97 -236 97s-173 -32.5 -237 -97.5s-96 -143.833 -96 -236.5v-2c0 -92 31.667 -170.333 95 -235s142 -97 236 -97zM276 177l-0.000976562 366.002h164
c46.667 0 82.334 -12.333 107.001 -37c18.667 -18.667 28 -41.334 28 -68.001v-2c0 -28.667 -9 -51.834 -27 -69.501s-42.333 -29.5 -73 -35.5l122 -154h-56l-116 147h-2h-104v-147h-43zM318.999 364.002h114c28.667 0 52 6.16699 70 18.5s27 29.5 27 51.5v2
c0 20 -8.16699 36 -24.5 48s-38.833 18 -67.5 18h-119v-138z" />
    <glyph glyph-name="copyright" unicode="&#xa9;" horiz-adv-x="830" 
d="M414 -12c-100.667 0 -186 35.167 -256 105.5s-105 155.166 -105 254.499v2c0 99.333 35.333 184.5 106 255.5s156.334 106.5 257.001 106.5s186 -35.167 256 -105.5s105 -155.166 105 -254.499v-2c0 -99.333 -35.333 -184.5 -106 -255.5s-156.334 -106.5 -257.001 -106.5
zM414 16c94 0 173 32.5 237 97.5s96 143.833 96 236.5v2c0 92 -31.667 170.333 -95 235s-142 97 -236 97s-173 -32.5 -237 -97.5s-96 -143.833 -96 -236.5v-2c0 -92 31.667 -170.333 95 -235s142 -97 236 -97zM419 166c-51.333 0 -94.5 18.334 -129.5 55.001
s-52.5 81 -52.5 133v2c0 51.333 17.667 95.666 53 132.999s78.666 56 129.999 56s98.333 -20.333 141 -61l-30 -31c-36 34.667 -73.333 52 -112 52c-39.333 0 -72.166 -14.5 -98.499 -43.5s-39.5 -63.833 -39.5 -104.5v-2c0 -40.667 13.5 -75.667 40.5 -105
s59.833 -44 98.5 -44c40 0 78.333 17.333 115 52l28 -28c-44 -42.667 -92 -64 -144 -64z" />
    <glyph glyph-name="ordfeminine" unicode="&#xaa;" horiz-adv-x="690" 
d="M333 392v308h37l120 -183l120 183h36v-308h-35v246l-119 -178h-5l-119 178v-246h-35zM127 392v274h-101v34h237v-34h-101v-274h-35z" />
    <glyph glyph-name="guillemotleft" unicode="&#xab;" 
d="M194 595l88 133l61 -30l-107 -103h-42z" />
    <glyph glyph-name="logicalnot" unicode="&#xac;" 
d="M297 595v80h69v-80h-69zM134 595v80h69v-80h-69z" />
    <glyph glyph-name="registered" unicode="&#xae;" horiz-adv-x="1045" 
d="M20 0l424 700h533v-48h-431v-275h386v-48h-386v-281h436v-48h-488v196h-300l-118 -196h-56zM222 243h272v410h-26z" />
    <glyph glyph-name="macron" unicode="&#xaf;" horiz-adv-x="850" 
d="M424 -12c-88.667 0 -164.667 27.334 -228 82.001l-71 -75h-60l100 106c-61.333 68.667 -92 151 -92 247v2c0 98.667 33 183.667 99 255s150.667 107 254 107c89.333 0 165.333 -27.667 228 -83l71 76h60l-100 -106c61.333 -68.667 92 -151 92 -247
c0.666992 -0.666992 0.666992 -1.33398 0 -2.00098c0 -98.667 -33 -183.667 -99 -255s-150.667 -107 -254 -107zM201 140.001l418.999 450c-54 50 -119.333 75 -196 75c-85.333 0 -156.166 -30.333 -212.499 -91s-84.5 -134.667 -84.5 -222v-2
c0 -81.333 24.667 -151.333 74 -210zM425.999 35.001c85.333 0 156.167 30.333 212.5 91s84.5 134.667 84.5 222v2c0 81.333 -24.667 151.333 -74 210l-419 -450c54 -50 119.333 -75 196 -75z" />
    <glyph glyph-name="plusminus" unicode="&#xb1;" horiz-adv-x="600" 
d="M303 -12c-54 0 -103.335 11.8301 -148.002 35.4971s-81.334 54.834 -110.001 93.501l42 31c56.667 -75.333 129.334 -113 218.001 -113c51.333 0 93.833 13.667 127.5 41s50.5 63 50.5 107v2c0 45.333 -18.167 80.833 -54.5 106.5s-87.166 38.5 -152.499 38.5h-70v46h71
c54.667 0 99.5 13.167 134.5 39.5s52.5 61.833 52.5 106.5v2c0 40.667 -15.5 74.334 -46.5 101.001s-71.5 40 -121.5 40c-78 0 -143 -35.667 -195 -107l-40 24c58.667 86.667 137.667 130 237 130c63.333 0 115.833 -17.667 157.5 -53s62.5 -79.666 62.5 -132.999v-2
c0 -80.667 -44.333 -136 -133 -166c46 -13.333 82.833 -34.333 110.5 -63s41.5 -65 41.5 -109v-2c0 -54.667 -22.167 -101 -66.5 -139s-100.166 -57 -167.499 -57z" />
    <glyph glyph-name="acute" unicode="&#xb4;" horiz-adv-x="686" 
d="M318 0v125h-213v45h213v98h-213v45h195l-268 387h63l249 -373l250 373h60l-269 -387h196v-45h-213v-98h213v-45h-213v-125h-50z" />
    <glyph glyph-name="uni00B5" unicode="&#xb5;" horiz-adv-x="850" 
d="M737 -101l-142.998 131.002c-50.667 -28 -107.334 -42 -170.001 -42c-103.333 0 -187.666 35.333 -252.999 106s-98 155.334 -98 254.001v2c0 98.667 33 183.667 99 255s150.667 107 254 107s187.666 -35.333 252.999 -106s98 -155.334 98 -254.001
c0.666992 -0.666992 0.666992 -1.33398 0 -2.00098c0 -56.667 -11.833 -110.334 -35.5 -161.001s-56.834 -93 -99.501 -127l170 -159v-4h-75zM426.002 35.002c85.333 0 156.166 30.333 212.499 91s84.5 134.667 84.5 222v2c0 87.333 -28.5 161.666 -85.5 222.999
s-128.167 92 -213.5 92s-156.166 -30.333 -212.499 -91s-84.5 -134.667 -84.5 -222v-2c0 -87.333 28.5 -161.666 85.5 -222.999s128.167 -92 213.5 -92z" />
    <glyph glyph-name="uni00B9" unicode="&#xb9;" horiz-adv-x="830" 
d="M414 -12c-100.667 0 -186 35.167 -256 105.5s-105 155.166 -105 254.499v2c0 99.333 35.333 184.5 106 255.5s156.334 106.5 257.001 106.5s186 -35.167 256 -105.5s105 -155.166 105 -254.499v-2c0 -99.333 -35.333 -184.5 -106 -255.5s-156.334 -106.5 -257.001 -106.5
zM414 16c94 0 173 32.5 237 97.5s96 143.833 96 236.5v2c0 92 -31.667 170.333 -95 235s-142 97 -236 97s-173 -32.5 -237 -97.5s-96 -143.833 -96 -236.5v-2c0 -92 31.667 -170.333 95 -235s142 -97 236 -97zM296 175l0.000976562 366h141c44 0 78.833 -10 104.5 -30
s38.5 -48.333 38.5 -85v-2c0 -38.667 -14.333 -68.5 -43 -89.5s-64.334 -31.5 -107.001 -31.5h-90v-128h-44zM340.001 344l91 -0.000976562c32 0 57.333 6.83301 76 20.5s28 32.834 28 57.501v2c0 50.667 -33.667 76 -101 76h-94v-156z" />
    <glyph glyph-name="guillemotright" unicode="&#xbb;" horiz-adv-x="390" 
d="M174 411c-28.667 0 -54 8 -76 24s-33 38 -33 66v2c0 28.667 11.333 51.334 34 68.001s52.667 25 90 25c27.333 0 55 -3.66699 83 -11v5c0 25.333 -7.33301 44.5 -22 57.5s-35 19.5 -61 19.5c-24.667 0 -54 -8 -88 -24l-13 34c36.667 17.333 71 26 103 26
c38.667 0 68.667 -10.667 90 -32c18.667 -18.667 28 -45.334 28 -80.001v-174h-37v41c-24 -31.333 -56.667 -47 -98 -47zM62 293v40h252v-40h-252zM176 447c26 0 48.5 7.16797 67.5 21.501s28.5 32.833 28.5 55.5v27c-24 7.33301 -52.333 11 -85 11
c-25.333 0 -45.333 -5.33301 -60 -16s-22 -24.334 -22 -41.001v-2c0 -17.333 6.83301 -31 20.5 -41s30.5 -15 50.5 -15z" />
    <glyph glyph-name="onequarter" unicode="&#xbc;" horiz-adv-x="390" 
d="M194 411c-40.667 0 -74.667 14.167 -102 42.5s-41 62.5 -41 102.5v2c0 40 13.833 74.5 41.5 103.5s62.167 43.5 103.5 43.5c40.667 0 74.667 -14.167 102 -42.5s41 -62.5 41 -102.5v-2c0 -40 -13.833 -74.5 -41.5 -103.5s-62.167 -43.5 -103.5 -43.5zM51 293v40h288v-40
h-288zM196 450c29.333 0 53.333 10.333 72 31s28 45.667 28 75v2c0 30 -9.83301 55.5 -29.5 76.5s-43.834 31.5 -72.501 31.5c-29.333 0 -53.333 -10.333 -72 -31s-28 -45.667 -28 -75v-2c0 -30 9.83301 -55.5 29.5 -76.5s43.834 -31.5 72.501 -31.5z" />
    <glyph glyph-name="onehalf" unicode="&#xbd;" horiz-adv-x="724" 
d="M485 0v465h-74v45h74v50c0 58.667 15 103 45 133c26.667 26.667 62.334 40 107.001 40c27.333 0 52.666 -4 75.999 -12v-46c-28 8.66699 -53.333 13 -76 13c-68.667 0 -103 -43 -103 -129v-49h178v-45h-178v-465h-49zM123 0v465h-74v45h74v50c0 58.667 15 103 45 133
c26.667 26.667 62.334 40 107.001 40c27.333 0 52.666 -4 75.999 -12v-46c-28 8.66699 -53.333 13 -76 13c-68.667 0 -103 -43 -103 -129v-49h178v-45h-178v-465h-49z" />
    <glyph glyph-name="threequarters" unicode="&#xbe;" horiz-adv-x="954" 
d="M243 -12c-51.333 0 -96.166 14.166 -134.499 42.499s-57.5 67.5 -57.5 117.5v2c0 52 20 92.667 60 122s92.667 44 158 44c51.333 0 104.666 -7.33301 159.999 -22v22c0 50.667 -14 89.334 -42 116.001s-67.667 40 -119 40c-48.667 0 -99.667 -13.667 -153 -41l-18 43
c62 29.333 120 44 174 44c105.333 0 169.666 -42.667 192.999 -128c20.667 40 49.167 72 85.5 96s76.5 36 120.5 36c70 0 126.5 -25.333 169.5 -76s64.5 -114.334 64.5 -191.001c0 -8 -0.333008 -14.667 -1 -20h-423c4.66699 -61.333 26.167 -110.166 64.5 -146.499
s83.5 -54.5 135.5 -54.5c66.667 0 125 26.667 175 80l34 -30c-59.333 -64 -129.666 -96 -210.999 -96c-42 0 -81.167 9.83301 -117.5 29.5s-65.833 47.167 -88.5 82.5c-64.667 -74.667 -141 -112 -229 -112zM480 278.999l370.999 0.000976562c-4 56 -21.667 103 -53 141
s-74.666 57 -129.999 57c-50 0 -92.667 -18.833 -128 -56.5s-55.333 -84.834 -60 -141.501zM245.999 34c78.667 0 146.667 35.667 204 107c-14 34.667 -21.333 71 -22 109c-63.333 14.667 -117.333 22 -162 22c-51.333 0 -91.333 -10.833 -120 -32.5s-43 -50.5 -43 -86.5v-2
c0 -36 13.667 -64.5 41 -85.5s61.333 -31.5 102 -31.5z" />
    <glyph glyph-name="questiondown" unicode="&#xbf;" horiz-adv-x="640" 
d="M319 -12c-64 0 -119.667 20 -167 60l-52 -53h-57l79 82c-42.667 50 -64 108.667 -64 176v2c0 72.667 25.167 135.334 75.5 188.001s112.833 79 187.5 79c64 0 119.667 -20.333 167 -61l52 56h57l-80 -84c43.333 -50 65 -108.667 65 -176v-2
c0 -72.667 -25.167 -135.334 -75.5 -188.001s-112.833 -79 -187.5 -79zM158 114l298 309.001c-39.333 35.333 -85 53 -137 53c-60 0 -109.667 -21.333 -149 -64s-59 -94.334 -59 -155.001v-2c0 -53.333 15.667 -100.333 47 -141zM321 34.001
c60 0 109.666 21.332 148.999 63.999s59 94.334 59 155.001v2c0 52.667 -15.667 99.667 -47 141l-298 -310c38.667 -34.667 84.334 -52 137.001 -52z" />
    <glyph glyph-name="Agrave" unicode="&#xc0;" horiz-adv-x="534" 
d="M256 615v85h66v-85h-66zM269 -9c-64.667 0 -116.999 18.832 -156.999 56.499s-60 83.834 -60 138.501v2c0 58.667 19.833 105.5 59.5 140.5s90.5 56.167 152.5 63.5l9 125h32l13 -162l-5 -5c-65.333 -1.33301 -116.333 -16.333 -153 -45s-55 -67 -55 -115v-2
c0 -42 15.333 -77.667 46 -107s70.667 -44 120 -44c72.667 0 137 34.333 193 103l36 -30c-30.667 -38.667 -64.334 -68.167 -101.001 -88.5s-80 -30.5 -130 -30.5z" />
    <glyph glyph-name="Aacute" unicode="&#xc1;" horiz-adv-x="252" 
d="M93 615v85h66v-85h-66zM97 0v70l15 447h28l15 -447v-70h-58z" />
    <glyph glyph-name="Atilde" unicode="&#xc3;" horiz-adv-x="973" 
d="M485 0v465h-74v45h74v50c0 58.667 15 103 45 133c26.667 26.667 62.334 40 107.001 40c27.333 0 52.666 -4 75.999 -12v-46c-28 8.66699 -53.333 13 -76 13c-68.667 0 -103 -43 -103 -129v-49h178v-45h-178v-465h-49zM123 0v465h-74v45h74v50c0 58.667 15 103 45 133
c26.667 26.667 62.334 40 107.001 40c27.333 0 52.666 -4 75.999 -12v-46c-28 8.66699 -53.333 13 -76 13c-68.667 0 -103 -43 -103 -129v-49h178v-45h-178v-465h-49zM824 0v730h49v-730h-49z" />
    <glyph glyph-name="Adieresis" unicode="&#xc4;" horiz-adv-x="506" 
d="M90 -5c-15.333 0 -31.666 1.33203 -48.999 3.99902v44c13.333 -2.66699 28.666 -4 45.999 -4c44.667 0 72 27.333 82 82l49 263h-109v45h117l26 136c9.33301 49.333 25.5 85 48.5 107s54.5 33 94.5 33c27.333 0 52.333 -3.33301 75 -10v-44
c-26.667 6.66699 -50 10 -70 10c-27.333 0 -48.333 -7.66699 -63 -23s-25.334 -40.666 -32.001 -75.999l-25 -133h155v-45h-163l-50 -266c-8 -42 -22.667 -73 -44 -93s-50.666 -30 -87.999 -30z" />
    <glyph glyph-name="Aring" unicode="&#xc5;" horiz-adv-x="973" 
d="M818 643v67h61v-67h-61zM485 0v465h-74v45h74v50c0 58.667 15 103 45 133c26.667 26.667 62.334 40 107.001 40c27.333 0 52.666 -4 75.999 -12v-46c-28 8.66699 -53.333 13 -76 13c-68.667 0 -103 -43 -103 -129v-49h178v-45h-178v-465h-49zM123 0v465h-74v45h74v50
c0 58.667 15 103 45 133c26.667 26.667 62.334 40 107.001 40c27.333 0 52.666 -4 75.999 -12v-46c-28 8.66699 -53.333 13 -76 13c-68.667 0 -103 -43 -103 -129v-49h178v-45h-178v-465h-49zM824 0v510h49v-510h-49z" />
    <glyph glyph-name="Ccedilla" unicode="&#xc7;" horiz-adv-x="515" 
d="M415 42l-160 209v8l160 209l37 -24l-137 -188l137 -190zM211 42l-160 209v8l160 209l37 -24l-137 -188l137 -190z" />
    <glyph glyph-name="Egrave" unicode="&#xc8;" horiz-adv-x="515" 
d="M304 42l-37 24l137 188l-137 190l37 24l160 -209v-8zM100 42l-37 24l137 188l-137 190l37 24l160 -209v-8z" />
    <glyph glyph-name="Eacute" unicode="&#xc9;" horiz-adv-x="680" 
d="M534 0v83h64v-83h-64zM308 0v83h64v-83h-64zM82 0v83h64v-83h-64z" />
    <glyph glyph-name="Ecircumflex" unicode="&#xca;" horiz-adv-x="300" 
 />
    <glyph glyph-name="Edieresis" unicode="&#xcb;" horiz-adv-x="790" 
d="M44 0l326 705h50l326 -705h-57l-89 196h-413l-89 -196h-54zM209 243h369l-184 405zM370 765l-107 103l61 30l88 -133h-42z" />
    <glyph glyph-name="Igrave" unicode="&#xcc;" horiz-adv-x="790" 
d="M44 0l326 705h50l326 -705h-57l-89 196h-413l-89 -196h-54zM209 243h369l-184 405zM281 756l-34 9c9.33301 34.667 20.5 58.834 33.5 72.501s29.833 20.5 50.5 20.5c12.667 0 34.334 -6.83301 65.001 -20.5s51.667 -20.5 63 -20.5c12 0 21.5 3.5 28.5 10.5
s14.167 20.167 21.5 39.5l34 -9c-9.33301 -34.667 -20.5 -58.834 -33.5 -72.501s-29.833 -20.5 -50.5 -20.5c-12.667 0 -34.334 6.83301 -65.001 20.5s-51.667 20.5 -63 20.5c-12 0 -21.5 -3.5 -28.5 -10.5s-14.167 -20.167 -21.5 -39.5z" />
    <glyph glyph-name="Iacute" unicode="&#xcd;" horiz-adv-x="850" 
d="M424 -12c-103.333 0 -187.666 35.334 -252.999 106.001s-98 155.334 -98 254.001v2c0 98.667 33 183.667 99 255s150.667 107 254 107s187.666 -35.333 252.999 -106s98 -155.334 98 -254.001c0.666992 -0.666992 0.666992 -1.33398 0 -2.00098
c0 -98.667 -33 -183.667 -99 -255s-150.667 -107 -254 -107zM426 35.001c85.333 0 156.166 30.333 212.499 91s84.5 134.667 84.5 222v2c0 87.333 -28.5 161.666 -85.5 222.999s-128.167 92 -213.5 92s-156.166 -30.333 -212.499 -91s-84.5 -134.667 -84.5 -222v-2
c0 -87.333 28.5 -161.666 85.5 -222.999s128.167 -92 213.5 -92zM311 756.001l-34 9c9.33301 34.667 20.5 58.834 33.5 72.501s29.833 20.5 50.5 20.5c12.667 0 34.334 -6.83301 65.001 -20.5s51.667 -20.5 63 -20.5c12 0 21.5 3.5 28.5 10.5s14.167 20.167 21.5 39.5l34 -9
c-9.33301 -34.667 -20.5 -58.834 -33.5 -72.501s-29.833 -20.5 -50.5 -20.5c-12.667 0 -34.334 6.83301 -65.001 20.5s-51.667 20.5 -63 20.5c-12 0 -21.5 -3.5 -28.5 -10.5s-14.167 -20.167 -21.5 -39.5z" />
    <glyph glyph-name="Icircumflex" unicode="&#xce;" horiz-adv-x="1152" 
d="M445 0c-108.667 0 -197.834 33.168 -267.501 99.501s-104.5 149.166 -104.5 248.499v2c0 100 34.833 183.333 104.5 250s158.834 100 267.501 100h639v-48h-431v-275h386v-48h-386v-281h436v-48h-644zM445 48.001l156 -0.000976562v604h-156
c-95.333 0 -172.166 -28.667 -230.499 -86s-87.5 -128.666 -87.5 -213.999v-2c0 -85.333 29.167 -157 87.5 -215s135.166 -87 230.499 -87z" />
    <glyph glyph-name="Idieresis" unicode="&#xcf;" horiz-adv-x="1055" 
d="M318 -12c-73.333 0 -135.002 26.001 -185.002 78.001s-75 114.333 -75 187v2c0 72.667 25.167 135.334 75.5 188.001s112.5 79 186.5 79c52.667 0 99.834 -14.333 141.501 -43s72.5 -66.334 92.5 -113.001c18.667 47.333 47.334 85.166 86.001 113.499
s82.667 42.5 132 42.5c70 0 126.333 -25.333 169 -76s64 -114.334 64 -191.001c0 -8 -0.333008 -14.667 -1 -20h-423c4.66699 -61.333 26.167 -110.166 64.5 -146.499s83.5 -54.5 135.5 -54.5c66.667 0 125 26.667 175 80l34 -30c-59.333 -64 -129 -96 -209 -96
c-50 0 -95.5 14.167 -136.5 42.5s-71.167 66.5 -90.5 114.5c-20 -46.667 -51 -84.5 -93 -113.5s-89.667 -43.5 -143 -43.5zM580.998 279.001l370.999 0.000976562c-4 56 -21.667 103 -53 141s-74.666 57 -129.999 57c-50 0 -92.667 -18.833 -128 -56.5
s-55.333 -84.834 -60 -141.501zM320.997 34.002c60 0 109.667 21.333 149 64s59 94.334 59 155.001v2c0 61.333 -20.333 113.5 -61 156.5s-90.334 64.5 -149.001 64.5c-60 0 -109.667 -21.333 -149 -64s-59 -94.334 -59 -155.001v-2c0 -61.333 20.333 -113.5 61 -156.5
s90.334 -64.5 149.001 -64.5z" />
    <glyph glyph-name="Eth" unicode="&#xd0;" horiz-adv-x="528" 
d="M70 271v52h388v-52h-388z" />
    <glyph glyph-name="Ntilde" unicode="&#xd1;" horiz-adv-x="898" 
d="M70 271v52h758v-52h-758z" />
    <glyph glyph-name="Ograve" unicode="&#xd2;" horiz-adv-x="410" 
d="M257 513v73.999c0 31.333 6.33301 56 19 74s34 32.667 64 44l12 -25c-22 -11.333 -37.167 -23.166 -45.5 -35.499s-11.833 -27.833 -10.5 -46.5h27v-85h-66zM77 512.999v73.999c0 31.333 6.33301 56 19 74s34 32.667 64 44l12 -25
c-22 -11.333 -37.167 -23.166 -45.5 -35.499s-11.833 -27.833 -10.5 -46.5h27v-85h-66z" />
    <glyph glyph-name="Oacute" unicode="&#xd3;" horiz-adv-x="410" 
d="M250 508l-12 25.001c22 11.333 37.167 23.166 45.5 35.499s11.833 27.833 10.5 46.5h-27v85h66v-74c0 -31.333 -6.33301 -56 -19 -74s-34 -32.667 -64 -44zM70 508.001l-12 25.001c22 11.333 37.167 23.166 45.5 35.499s11.833 27.833 10.5 46.5h-27v85h66v-74
c0 -31.333 -6.33301 -56 -19 -74s-34 -32.667 -64 -44z" />
    <glyph glyph-name="Ocircumflex" unicode="&#xd4;" horiz-adv-x="230" 
d="M77 513v73.999c0 31.333 6.33301 56 19 74s34 32.667 64 44l12 -25c-22 -11.333 -37.167 -23.166 -45.5 -35.499s-11.833 -27.833 -10.5 -46.5h27v-85h-66z" />
    <glyph glyph-name="Otilde" unicode="&#xd5;" horiz-adv-x="230" 
d="M70 508l-12 25.001c22 11.333 37.167 23.166 45.5 35.499s11.833 27.833 10.5 46.5h-27v85h66v-74c0 -31.333 -6.33301 -56 -19 -74s-34 -32.667 -64 -44z" />
    <glyph glyph-name="Oslash" unicode="&#xd8;" horiz-adv-x="588" 
d="M155 -163c-34 0 -67.667 7.33301 -101 22l17 43c26 -12.667 55 -19 87 -19c26.667 0 49.667 9 69 27s38.333 49 57 93l-245 507h57l212 -456l184 456h54l-221 -528c-22 -52 -46.5 -89.167 -73.5 -111.5s-59.167 -33.5 -96.5 -33.5zM341 595v80h69v-80h-69zM178 595v80h69
v-80h-69z" />
    <glyph glyph-name="Ugrave" unicode="&#xd9;" horiz-adv-x="716" 
d="M332 0v277l-300 423h65l262 -376l263 376h62l-300 -422v-278h-52zM405 760v80h69v-80h-69zM242 760v80h69v-80h-69z" />
    <glyph glyph-name="Uacute" unicode="&#xda;" horiz-adv-x="410" 
d="M-67 -98l468 856h54l-468 -856h-54z" />
    <glyph glyph-name="Ucircumflex" unicode="&#xdb;" horiz-adv-x="720" 
d="M428 -12c-68 0 -127.167 23.5 -177.5 70.5s-84.166 109.167 -101.499 186.5h-90v48h83c-2 18 -3 36.333 -3 55v2c0 22.667 1.66699 44.667 5 66h-85v48h94c18.667 73.333 52.167 133 100.5 179s104.166 69 167.499 69c98 0 178 -46.667 240 -140l-40 -27
c-28.667 42 -58.167 72.667 -88.5 92s-68.166 29 -113.499 29c-49.333 0 -93.333 -18.667 -132 -56s-66.334 -86 -83.001 -146h284v-48h-293c-3.33301 -20 -5 -41.333 -5 -64v-2c0 -18.667 1 -37.667 3 -57h295v-48h-286c16 -63.333 44.333 -114.333 85 -153
s88.667 -58 144 -58c74 0 138.667 42.667 194 128l38 -25c-64.667 -99.333 -143 -149 -235 -149z" />
    <glyph glyph-name="Udieresis" unicode="&#xdc;" horiz-adv-x="311" 
d="M211 42l-160 209v8l160 209l37 -24l-137 -188l137 -190z" />
    <glyph glyph-name="Yacute" unicode="&#xdd;" horiz-adv-x="311" 
d="M100 42l-37 24l137 188l-137 190l37 24l160 -209v-8z" />
    <glyph glyph-name="Thorn" unicode="&#xde;" horiz-adv-x="611" 
d="M456 643v67h61v-67h-61zM123 0v465h-74v45h74v50c0 58.667 15 103 45 133c26.667 26.667 62.334 40 107.001 40c27.333 0 52.666 -4 75.999 -12v-46c-28 8.66699 -53.333 13 -76 13c-68.667 0 -103 -43 -103 -129v-49h178v-45h-178v-465h-49zM462 0v510h49v-510h-49z" />
    <glyph glyph-name="germandbls" unicode="&#xdf;" horiz-adv-x="611" 
d="M123 0v465h-74v45h74v50c0 58.667 15 103 45 133c26.667 26.667 62.334 40 107.001 40c27.333 0 52.666 -4 75.999 -12v-46c-28 8.66699 -53.333 13 -76 13c-68.667 0 -103 -43 -103 -129v-49h178v-45h-178v-465h-49zM462 0v730h49v-730h-49z" />
    <glyph glyph-name="agrave" unicode="&#xe0;" horiz-adv-x="430" 
d="M190 0l7 145l-124 -7v45l125 -7l-5 174l5 174l-125 -7v45l124 -7l-7 145h50l-7 -145l124 7v-45l-125 7l5 -174l-5 -174l125 7v-45l-124 7l7 -145h-50z" />
    <glyph glyph-name="aacute" unicode="&#xe1;" horiz-adv-x="230" 
d="M82 255v85h66v-85h-66z" />
    <glyph glyph-name="acircumflex" unicode="&#xe2;" horiz-adv-x="230" 
d="M65 -107l-12 25.001c22 11.333 37.167 23.166 45.5 35.499s11.833 27.833 10.5 46.5h-27v85h66v-74c0 -31.333 -6.33301 -56 -19 -74s-34 -32.667 -64 -44z" />
    <glyph glyph-name="atilde" unicode="&#xe3;" horiz-adv-x="410" 
d="M245 -107l-12 25.001c22 11.333 37.167 23.166 45.5 35.499s11.833 27.833 10.5 46.5h-27v85h66v-74c0 -31.333 -6.33301 -56 -19 -74s-34 -32.667 -64 -44zM65 -106.999l-12 25.001c22 11.333 37.167 23.166 45.5 35.499s11.833 27.833 10.5 46.5h-27v85h66v-74
c0 -31.333 -6.33301 -56 -19 -74s-34 -32.667 -64 -44z" />
    <glyph glyph-name="adieresis" unicode="&#xe4;" horiz-adv-x="1200" 
d="M208 350c-44.667 0 -81.334 17.5 -110.001 52.5s-43 76.5 -43 124.5v2c0 48.667 14.5 90.667 43.5 126s66.167 53 111.5 53c44.667 0 81.334 -17.5 110.001 -52.5s43 -76.5 43 -124.5v-2c0 -48.667 -14.5 -90.667 -43.5 -126s-66.167 -53 -111.5 -53zM128 0l514 700h54
l-514 -700h-54zM990 -8c-44.667 0 -81.334 17.5 -110.001 52.5s-43 76.5 -43 124.5v2c0 48.667 14.5 90.667 43.5 126s66.167 53 111.5 53c44.667 0 81.334 -17.5 110.001 -52.5s43 -76.5 43 -124.5v-2c0 -48.667 -14.5 -90.667 -43.5 -126s-66.167 -53 -111.5 -53zM614 -8
c-44.667 0 -81.334 17.5 -110.001 52.5s-43 76.5 -43 124.5v2c0 48.667 14.5 90.667 43.5 126s66.167 53 111.5 53c44.667 0 81.334 -17.5 110.001 -52.5s43 -76.5 43 -124.5v-2c0 -48.667 -14.5 -90.667 -43.5 -126s-66.167 -53 -111.5 -53zM210 393
c29.333 0 53.5 12.833 72.5 38.5s28.5 57.5 28.5 95.5v2c0 38.667 -10 71 -30 97s-44.333 39 -73 39c-29.333 0 -53.5 -13 -72.5 -39s-28.5 -57.667 -28.5 -95v-2c0 -38.667 10 -71 30 -97s44.333 -39 73 -39zM992 35c29.333 0 53.5 12.833 72.5 38.5s28.5 57.5 28.5 95.5v2
c0 38.667 -10 71 -30 97s-44.333 39 -73 39c-29.333 0 -53.5 -13 -72.5 -39s-28.5 -57.667 -28.5 -95v-2c0 -38.667 10 -71 30 -97s44.333 -39 73 -39zM616 35c29.333 0 53.5 12.833 72.5 38.5s28.5 57.5 28.5 95.5v2c0 38.667 -10 71 -30 97s-44.333 39 -73 39
c-29.333 0 -53.5 -13 -72.5 -39s-28.5 -57.667 -28.5 -95v-2c0 -38.667 10 -71 30 -97s44.333 -39 73 -39z" />
    <glyph glyph-name="aring" unicode="&#xe5;" horiz-adv-x="790" 
d="M44 0l326 705h50l326 -705h-57l-89 196h-413l-89 -196h-54zM209 243h369l-184 405zM275 760l100 122h40l100 -122h-47l-74 68l-74 -68h-45z" />
    <glyph glyph-name="ae" unicode="&#xe6;" horiz-adv-x="670" 
d="M104 0v700h498v-48h-446v-275h401v-48h-401v-281h451v-48h-503zM229 765l100 122h40l100 -122h-47l-74 68l-74 -68h-45z" />
    <glyph glyph-name="ccedilla" unicode="&#xe7;" horiz-adv-x="790" 
d="M44 0l326 705h50l326 -705h-57l-89 196h-413l-89 -196h-54zM209 243h369l-184 405zM378 765l88 133l61 -30l-107 -103h-42z" />
    <glyph glyph-name="egrave" unicode="&#xe8;" horiz-adv-x="670" 
d="M104 0v700h498v-48h-446v-275h401v-48h-401v-281h451v-48h-503zM396 765v80h69v-80h-69zM233 765v80h69v-80h-69z" />
    <glyph glyph-name="eacute" unicode="&#xe9;" horiz-adv-x="670" 
d="M104 0v700h498v-48h-446v-275h401v-48h-401v-281h451v-48h-503zM349 765l-107 103l61 30l88 -133h-42z" />
    <glyph glyph-name="ecircumflex" unicode="&#xea;" horiz-adv-x="274" 
d="M111 0v700h52v-700h-52zM118 765l88 133l61 -30l-107 -103h-42z" />
    <glyph glyph-name="edieresis" unicode="&#xeb;" horiz-adv-x="274" 
d="M111 0v700h52v-700h-52zM18 765l100 122h40l100 -122h-47l-74 68l-74 -68h-45z" />
    <glyph glyph-name="igrave" unicode="&#xec;" horiz-adv-x="274" 
d="M111 0v700h52v-700h-52zM185 765v80h69v-80h-69zM22 765v80h69v-80h-69z" />
    <glyph glyph-name="iacute" unicode="&#xed;" horiz-adv-x="274" 
d="M111 0v700h52v-700h-52zM114 765l-107 103l61 30l88 -133h-42z" />
    <glyph glyph-name="icircumflex" unicode="&#xee;" horiz-adv-x="850" 
d="M424 -12c-103.333 0 -187.666 35.334 -252.999 106.001s-98 155.334 -98 254.001v2c0 98.667 33 183.667 99 255s150.667 107 254 107s187.666 -35.333 252.999 -106s98 -155.334 98 -254.001c0.666992 -0.666992 0.666992 -1.33398 0 -2.00098
c0 -98.667 -33 -183.667 -99 -255s-150.667 -107 -254 -107zM426 35.001c85.333 0 156.166 30.333 212.499 91s84.5 134.667 84.5 222v2c0 87.333 -28.5 161.666 -85.5 222.999s-128.167 92 -213.5 92s-156.166 -30.333 -212.499 -91s-84.5 -134.667 -84.5 -222v-2
c0 -87.333 28.5 -161.666 85.5 -222.999s128.167 -92 213.5 -92zM409 765.001l88 133l61 -30l-107 -103h-42z" />
    <glyph glyph-name="idieresis" unicode="&#xef;" horiz-adv-x="850" 
d="M424 -12c-103.333 0 -187.666 35.334 -252.999 106.001s-98 155.334 -98 254.001v2c0 98.667 33 183.667 99 255s150.667 107 254 107s187.666 -35.333 252.999 -106s98 -155.334 98 -254.001c0.666992 -0.666992 0.666992 -1.33398 0 -2.00098
c0 -98.667 -33 -183.667 -99 -255s-150.667 -107 -254 -107zM426 35.001c85.333 0 156.166 30.333 212.499 91s84.5 134.667 84.5 222v2c0 87.333 -28.5 161.666 -85.5 222.999s-128.167 92 -213.5 92s-156.166 -30.333 -212.499 -91s-84.5 -134.667 -84.5 -222v-2
c0 -87.333 28.5 -161.666 85.5 -222.999s128.167 -92 213.5 -92zM305 765.001l100 122h40l100 -122h-47l-74 68l-74 -68h-45z" />
    <glyph glyph-name="eth" unicode="&#xf0;" horiz-adv-x="967" 
d="M868 0h-767v750h767v-750zM859 -104h-6l-3 20l-10 -21h-2l-10 21l-3 -20h-6l6 34h1l13 -26l13 26h1zM806 -87c0 -12 -5.66699 -18 -17 -18c-4.66699 0 -8.66699 1.66699 -12 5s-5 7.33301 -5 12c0 12 6 18 18 18c4.66699 0 8.5 -1.66699 11.5 -5s4.5 -7.33301 4.5 -12z
M758 -96l-1.00195 -5.99902c-2 -2 -5.33301 -3 -10 -3c-12 0 -18 5.66699 -18 17c0 5.33301 1.83301 9.66602 5.5 12.999s7.83398 5 12.501 5s8.33398 -1 11.001 -3l-2 -5c-2 2 -5 3 -9 3c-8 0 -12 -4 -12 -12c0 -8.66699 4.33301 -13 13 -13c2.66699 0 6 1.33301 10 4z
M701.998 -70.999l-13 -19v-14h-6v14l-14 19l6 1l11 -15l9 14h7zM655.998 -103.999h-6v15h-16v-15h-6v33h6v-13h16v13h6v-33zM611.998 -81.999c0 -8 -5.66699 -12 -17 -12v-10h-6v33c15.333 2 23 -1.66699 23 -11zM575.998 -103.999h-6l-4 8h-14l-3 -8h-6l15 34h2z
M533.998 -103.999h-7l-8 11h-5v-11h-6v33c15.333 2 23 -1.33301 23 -10c0 -4.66699 -2.33301 -8 -7 -10zM490.998 -100.999c-4 -2.66699 -8.33203 -3.99902 -12.999 -3.99902c-12 0 -18 5.66699 -18 17c0 5.33301 1.83301 9.66602 5.5 12.999s8.16699 5 13.5 5
c4 0 8 -1.33301 12 -4l-2 -5c-2.66699 2.66699 -6.33398 4 -11.001 4c-8 0 -12 -4.33301 -12 -13c0 -8 4.33301 -12 13 -12c1.33301 0 3.33301 0.666992 6 2v7h-9v5h15v-15zM446.999 -86.998c0 -12 -5.66699 -18 -17 -18c-4.66699 0 -8.66699 1.66699 -12 5
s-5 7.33301 -5 12c0 12 6 18 18 18c4.66699 0 8.5 -1.66699 11.5 -5s4.5 -7.33301 4.5 -12zM399.999 -81.998c0 -8 -5.66699 -12 -17 -12v-10h-6v33c15.333 2 23 -1.66699 23 -11zM363.999 -70.998l-13 -19v-14h-6v14l-14 19l6 1l11 -15l9 14h7zM322.999 -70.998v-5h-12v-28
h-6v28h-12v5h30zM266.999 -70.998l-12 -34h-1l-11 23l-10 -23h-1l-12 34l6 1l7 -23l10 23h1l10 -23l7 22h6zM210.999 -70.998l-12 -34h-1l-11 23l-10 -23h-1l-12 34l6 1l7 -23l10 23h1l10 -23l7 22h6zM154.999 -70.998l-12 -34h-1l-11 23l-10 -23h-1l-12 34l6 1l7 -23l10 23
h1l10 -23l7 22h6zM715.999 -100.998c0 -2.66699 -1.33301 -4 -4 -4s-4 1.33301 -4 4s1.33301 4 4 4s4 -1.33301 4 -4zM283.999 -100.998c0 -2.66699 -1.33301 -4 -4 -4s-4 1.33301 -4 4s1.33301 4 4 4s4 -1.33301 4 -4zM558.999 686.002c0 5.33301 -0.333008 9.33301 -1 12
c-1.33301 -0.666992 -7 -1 -17 -1s-16 0.333008 -18 1l-1 -12h2c2.66699 6 6 9 10 9c2 0 3 -1 3 -3v-23c-0.666992 -3.33301 -2.33398 -5 -5.00098 -5v-2h17v2l-4 2c-0.666992 0.666992 -1 1.66699 -1 3v23c0 2 1 3 3 3s3.83301 -0.833008 5.5 -2.5
s2.83398 -3.16699 3.50098 -4.5l1 -2h2zM503.999 662.002l0.000976562 2.00098c-4 -0.666992 -6 1 -6 5v21c0 3.33301 2 5 6 5v2h-18v-1v-1l4 -2c0.666992 -0.666992 1 -1.66699 1 -3v-9h-17v9c0.666992 3.33301 2.33398 5 5.00098 5v1v1h-17v-2l4 -2
c0.666992 -0.666992 1 -1.66699 1 -3v-21c-0.666992 -2.66699 -2.33398 -4.33398 -5.00098 -5.00098v-2h17v2c-3.33301 0 -5 1.66699 -5 5v10h17v-10c-0.666992 -3.33301 -2.33398 -5 -5.00098 -5v-2h18zM439 664.003l-4 2c-0.666992 0.666992 -1 1.66699 -1 3v21
c0.666992 3.33301 2.33398 5 5.00098 5v2h-29l-2 -10l2 -1c2 5.33301 5 8 9 8h4c2.66699 0 4 -1 4 -3v-10h-4c-3.33301 0 -5.33301 1.66699 -6 5h-2v-13h2c0 4 2 6 6 6h4v-11c0 -2 -1.33301 -3 -4 -3h-4c-2 0 -3.83301 0.833008 -5.5 2.5s-2.83398 3.16699 -3.50098 4.5
l-1 2l-2 -1l2 -11h30v2zM827 618.003v6h-685v-6h685zM696 540.003c0 10 -3.83301 18.833 -11.5 26.5s-16.167 11.5 -25.5 11.5c-5.33301 0 -10.5 -1.83301 -15.5 -5.5s-7.5 -9.16699 -7.5 -16.5c0 -10.667 3.66699 -19.667 11 -27s16 -11 26 -11
c5.33301 0 10.5 1.83301 15.5 5.5s7.5 9.16699 7.5 16.5zM589 537.003c0 8 -4.66602 13.667 -13.999 17c3.33301 2 5 5 5 9c0 10 -7 15 -21 15c-8.66699 0 -13 -3.66699 -13 -11c0 -4 1.66699 -6 5 -6c2.66699 0 4 1 4 3c0 1.33301 -0.5 2.5 -1.5 3.5s-1.5 1.83301 -1.5 2.5
c0 3.33301 2.33301 5 7 5c6.66699 0 10 -4 10 -12c0 -2.66699 -0.666992 -4.66699 -2 -6c-10.667 1.33301 -16 -0.666992 -16 -6c0 -4 2.66699 -6 8 -6c4 0 7.66699 1.66699 11 5c4 -2.66699 6 -7.66699 6 -15c0 -9.33301 -4 -14 -12 -14s-12 3 -12 9c0 2 1 3 3 3l1 -1
c1.33301 -0.666992 2.66602 -1 3.99902 -1c2.66699 0 4 1.66699 4 5s-2.33301 5 -7 5c-6 0 -9 -3.33301 -9 -10c0 -8.66699 5.33301 -13 16 -13c16.667 0 25 6.33301 25 19zM295.001 537.003c0 8 -4.66602 13.667 -13.999 17c3.33301 2 5 5 5 9c0 10 -7 15 -21 15
c-8.66699 0 -13 -3.66699 -13 -11c0 -4 1.66699 -6 5 -6c2.66699 0 4 1 4 3c0 1.33301 -0.5 2.5 -1.5 3.5s-1.5 1.83301 -1.5 2.5c0 3.33301 2.33301 5 7 5c6.66699 0 10 -4 10 -12c0 -2.66699 -0.666992 -4.66699 -2 -6c-10.667 1.33301 -16 -0.666992 -16 -6
c0 -4 2.66699 -6 8 -6c4 0 7.66699 1.66699 11 5c4 -2.66699 6 -7.66699 6 -15c0 -9.33301 -4 -14 -12 -14s-12 3 -12 9c0 2 1 3 3 3l1 -1c1.33301 -0.666992 2.66602 -1 3.99902 -1c2.66699 0 4 1.66699 4 5s-2.33301 5 -7 5c-6 0 -9 -3.33301 -9 -10
c0 -8.66699 5.33301 -13 16 -13c16.667 0 25 6.33301 25 19zM820.002 522.003c-5.33301 -0.666992 -8.66699 2 -10 8l-7 35c-0.666992 2.66699 -0.333984 4.66699 0.999023 6s2.66602 2 3.99902 2h2l-1 3h-28l1 -3c4.66699 0.666992 7.66699 -2 9 -8l3 -15h-24l-3 15
c-0.666992 2.66699 -0.333984 4.66699 0.999023 6s2.66602 2 3.99902 2h2l-1 3h-29l1 -3c5.33301 0.666992 8.66602 -2 9.99902 -8l7 -35c0.666992 -2.66699 0.333984 -4.66699 -0.999023 -6s-2.66602 -2 -3.99902 -2h-2l1 -3h29l-1 3
c-5.33301 -0.666992 -8.66602 2 -9.99902 8l-3 16h24l3 -16c0.666992 -2.66699 0.333984 -4.66699 -0.999023 -6s-2.66602 -2 -3.99902 -2h-2l1 -3h29zM498.001 519.003l-1 3.00098c-5.33301 -0.666992 -8.66602 2 -9.99902 8l-7 35
c-0.666992 2.66699 -0.333984 4.66699 0.999023 6s2.66602 2 3.99902 2h2l-1 3h-45v-17h4c-0.666992 8.66699 3.66602 13 12.999 13h4c3.33301 0 5.33301 -2 6 -6l3 -16h-4c-2.66699 0 -5 0.666992 -7 2s-3.33301 2.66602 -4 3.99902l-1 3h-3l5 -23h3
c-0.666992 7.33301 2 11 8 11h4l3 -17c0.666992 -2.66699 0.333984 -4.66699 -0.999023 -6s-2.66602 -2 -3.99902 -2h-2l1 -3h29zM202.001 522.004c-5.33301 -0.666992 -8.66797 2 -10.001 8l-7 35c-0.666992 2.66699 -0.333984 4.66699 0.999023 6s2.66602 2 3.99902 2h2
l-1 3h-27c-13.333 0 -20 -5 -20 -15c0 -8.66699 6.33301 -13.667 19 -15l-9 -16c-1.33301 -2.66699 -3.16602 -4.66699 -5.49902 -6s-4.5 -2 -6.5 -2h-2l1 -3h19l12 23c1.33301 2 3 3 5 3l3 -15c0.666992 -2.66699 0.333984 -4.66699 -0.999023 -6s-2.66602 -2 -3.99902 -2
h-2l1 -3h29zM399.999 521.004c0 5.33301 -4.33008 8.33398 -12.9971 9.00098c-2.66699 1.33301 -4.33398 6.16602 -5.00098 14.499s-2.5 16 -5.5 23s-9.16699 10.5 -18.5 10.5c-3.33301 0 -6.33301 -1.16699 -9 -3.5s-4 -4.5 -4 -6.5c0 -3.33301 1.66699 -5 5 -5
c2.66699 0 4 2 4 6s1.66699 6 5 6s5.66602 -2.66699 6.99902 -8s2.83301 -11.833 4.5 -19.5s4.83398 -13.5 9.50098 -17.5c-5.33301 0 -10 -2.16699 -14 -6.5s-7 -6.5 -9 -6.5c-3.33301 0 -5 1.33301 -5 4c0 1.33301 0.333008 2.33301 1 3s1 1.33398 1 2.00098
c0 3.33301 -1.66699 5 -5 5s-5 -2.33301 -5 -7c0 -2.66699 1.66699 -5.33398 5 -8.00098s6.66602 -4 9.99902 -4c6.66699 0 11.667 2.16699 15 6.5s6.66602 6.5 9.99902 6.5c2.66699 -4.66699 6.66699 -7 12 -7c2.66699 0 4 1 4 3zM827.002 475.005v6h-685v-6h685z
M827.002 378.005v62h-147v-62h36v28h11v-65h-14v-33h81v33h-14v65h11v-28h36zM648.002 406.005v34h-81v-34h11l-15 -23l-15 23h10v34h-62v-34h12l37 -46v-19h-14v-33h81v33h-15v20l37 45h14zM458.002 308.005v33h-14v65h14v34h-96c-14 0 -25.333 -3.83301 -34 -11.5
s-13 -17.167 -13 -28.5c0 -12 4.33301 -21.667 13 -29s20 -11 34 -11h30v-19h-15v-33h81zM283.002 308.005v33h-14v65h14v34h-141v-62h41v28h33v-20h-24v-24h24v-21h-33v28h-41v-61h141zM827.002 271.005v6h-685v-6h685zM728.002 192.005c0 10 -3.83301 18.833 -11.5 26.5
s-16.167 11.5 -25.5 11.5c-5.33301 0 -10.5 -1.83301 -15.5 -5.5s-7.5 -9.16699 -7.5 -16.5c0 -10.667 3.66699 -19.667 11 -27s16 -11 26 -11c5.33301 0 10.5 1.83301 15.5 5.5s7.5 9.16699 7.5 16.5zM203.002 217.005c-4.66699 8.66699 -10.667 13 -18 13
c-10 0 -14.667 -7.66699 -14 -23c-4.66699 15.333 -11.667 23 -21 23c-8 0 -12 -4 -12 -12l3 -1c0 4 2.66699 6 8 6c10.667 0 18.667 -11 24 -33c1.33301 -5.33301 1.5 -9.16602 0.5 -11.499s-2.16699 -3.5 -3.5 -3.5h-3l1 -4h28l-1 4c-4.66699 -1.33301 -8 1.66699 -10 9
c-3.33301 11.333 -5 19.666 -5 24.999c0 8.66699 3 13 9 13c3.33301 0 7.33301 -2.33301 12 -7zM823.002 171.005l-1 3.00098c-5.33301 -0.666992 -8.66602 2 -9.99902 8l-7 35c-0.666992 2.66699 -0.333984 4.66699 0.999023 6s2.66602 2 3.99902 2h2l-1 3h-45v-17h4
c-0.666992 8.66699 3.66602 13 12.999 13h4c3.33301 0 5.33301 -2 6 -6l3 -16h-4c-2.66699 0 -5 0.666992 -7 2s-3.33301 2.66602 -4 3.99902l-1 3h-3l5 -23h3c-0.666992 7.33301 2 11 8 11h4l3 -17c0.666992 -2.66699 0.333984 -4.66699 -0.999023 -6
s-2.66602 -2 -3.99902 -2h-2l1 -3h29zM621.002 225.006l-0.993164 3.00195h-29l1 -3c5.33301 0.666992 8.66602 -2.33301 9.99902 -9l5 -21c3.33301 -13.333 -0.333984 -20 -11.001 -20c-9.33301 0 -16 7.33301 -20 22l-4 19
c-0.666992 3.33301 -0.333984 5.66602 0.999023 6.99902s2.66602 2 3.99902 2h2v3h-24l1 -3c6 0.666992 9.66699 -2.33301 11 -9l4 -19c3.33301 -18 12.666 -27 27.999 -27c16 0 22.333 8 19 24l-5 22c-0.666992 3.33301 -0.333984 5.66602 0.999023 6.99902
s2.66602 2 3.99902 2h3zM522.009 174.008c-4 0 -6.99707 3.33203 -8.99707 9.99902l-7 32c-0.666992 2.66699 -0.333984 4.83398 0.999023 6.50098s3 2.5 5 2.5h2l-1 3h-14l-29 -42l-5 30c-0.666992 2.66699 -0.333984 4.66699 0.999023 6s2.66602 2 3.99902 2l2 1l-1 3h-21
l1 -3c4.66699 0 7.66699 -3 9 -9l8 -45l3 -1l30 44l6 -30c0.666992 -3.33301 0.5 -5.83301 -0.5 -7.5s-2.16699 -2.5 -3.5 -2.5h-2l1 -3h21zM414.012 171.007l-1 4c-4.66699 -1.33301 -8 1.66699 -10 9l-8 31c-2 6 0.666992 9.33301 8 10l-1 3h-30
c-16.667 0 -25 -7.33301 -25 -22c0 -10 3.66699 -18.333 11 -25s15.333 -10 24 -10h32zM306.012 174.007c-5.33301 -0.666992 -8.66797 2 -10.001 8l-7 35c-0.666992 2.66699 -0.333984 4.66699 0.999023 6s2.66602 2 3.99902 2h2l-1 3h-27c-13.333 0 -20 -5 -20 -15
c0 -8.66699 6.33301 -13.667 19 -15l-9 -16c-1.33301 -2.66699 -3.16602 -4.66699 -5.49902 -6s-4.5 -2 -6.5 -2h-2l1 -3h19l12 23c1.33301 2 3 3 5 3l3 -15c0.666992 -2.66699 0.333984 -4.66699 -0.999023 -6s-2.66602 -2 -3.99902 -2h-2l1 -3h29zM827.01 127.007v6h-685
v-6h685zM694.01 46.0068l0.000976562 2c-4 0.666992 -6 2.33398 -6 5.00098v20l6 6v2h-10l-24 -26v18c0 1.33301 0.5 2.5 1.5 3.5s1.83301 1.5 2.5 1.5l2 1v2h-15v-2c4 -0.666992 6 -2.66699 6 -6v-28h3l25 28v-20c-0.666992 -2.66699 -2.33398 -4.33398 -5.00098 -5.00098
v-2h14zM633.011 48.0068l-4 2c-0.666992 0.666992 -1 1.66699 -1 3v21c0.666992 3.33301 2.33398 5 5.00098 5v2h-29l-2 -10l2 -1c2 5.33301 5 8 9 8h4c2.66699 0 4 -1 4 -3v-10h-4c-3.33301 0 -5.33301 1.66699 -6 5h-2v-13h2c0 4 2 6 6 6h4v-11c0 -2 -1.33301 -3 -4 -3h-4
c-2 0 -3.83301 0.833008 -5.5 2.5s-2.83398 3.16699 -3.50098 4.5l-1 2l-2 -1l2 -11h30v2zM583.011 81.0068h-15.001v-2l2 -2c0.666992 -0.666992 0.666992 -1.66699 0 -3l-9 -19l-5 10l4 8l6 6v2h-26l1 -2c2 0 4.33301 -2 7 -6l3 -5l-7 -13l-8 18
c-1.33301 3.33301 -0.666016 5.33301 2.00098 6v2h-13v-2c2.66699 -0.666992 4.66699 -2.66699 6 -6l13 -27h1c0.666992 -0.666992 1 -0.666992 1 0l8 16l9 -16h1l12 27c0.666992 2 1.66699 3.5 3 4.5s2.33301 1.5 3 1.5h1v2zM480.01 79.0068l-0.000976562 1.99902h-15v-2
l2 -1c0.666992 -0.666992 0.333984 -2 -0.999023 -4l-6 -9l-6 9c-1.33301 2.66699 -0.333008 4.33398 3 5.00098v2h-15v-2c3.33301 0 6 -1.66699 8 -5l8 -12v-8c0 -3.33301 -1.66699 -5.33301 -5 -6v-2h17v2c-3.33301 0 -5 2 -5 6v8l8 12zM425.009 64.0059
c0 12 -6.66699 18 -20 18s-20 -6 -20 -18c0 -12.667 6.66699 -19 20 -19s20 6.33301 20 19zM364.009 46.0059l0.000976562 2.00098c-3.33301 0 -5 1.66699 -5 5v20c0 3.33301 1.66699 5.33301 5 6v2h-18c-8.66699 0 -13 -3 -13 -9c0 -3.33301 3 -6.33301 9 -9l-7 -10l-8 -5
v-2h11l7 12c2 2.66699 4.33301 4 7 4v-9c-0.666992 -2.66699 -2.33398 -4.33398 -5.00098 -5.00098v-2h17zM309.01 46.0068l0.000976562 2c-4 0.666992 -6 2.66699 -6 6v20c0 3.33301 2 5 6 5v2h-18v-2c4 0 6 -1.66699 6 -5v-9c-1.33301 0 -2.66602 0.666992 -3.99902 2
l-8 8c-1.33301 2 -1 3.33301 1 4v2h-14v-2c3.33301 -0.666992 6 -2 8 -4l10 -9l-13 -13l-7 -5v-2h17v2l-3 1c-0.666992 0.666992 -0.333984 2 0.999023 4l8 8c1.33301 1.33301 2.66602 2 3.99902 2v-9c0 -2 -0.5 -3.5 -1.5 -4.5s-2.16699 -1.5 -3.5 -1.5h-1v-2h18z
M606.011 -82.9932c0 5.33301 -3.66699 7.66699 -11 7v-13c7.33301 0 11 2 11 6zM525.011 -81.9922c0 5.33301 -3.66699 7.33301 -11 6v-12c7.33301 -0.666992 11 1.33301 11 6zM394.011 -82.9922c0 5.33301 -3.66699 7.66699 -11 7v-13c7.33301 0 11 2 11 6z
M564.011 -91.9912l-5 12l-5 -12h10zM800.011 -87.9912c0 8.66699 -3.66699 13 -11 13s-11 -4 -11 -12c0 -8.66699 3.66699 -13 11 -13s11 4 11 12zM441.011 -87.9912c0 8.66699 -3.66699 13 -11 13s-11 -4 -11 -12c0 -8.66699 3.66699 -13 11 -13s11 4 11 12z
M176.011 548.009h-5c-10 0 -15 5 -15 15c0 6 2.66699 9 8 9s8.33301 -1.66699 9 -5zM566.011 553.009c-2 -2.66699 -4.33203 -4 -6.99902 -4s-4 0.666992 -4 2c0 2 1.33301 3 4 3c3.33301 0 5.66602 -0.333008 6.99902 -1zM272.012 553.009
c-2 -2.66699 -4.33203 -4 -6.99902 -4s-4 0.666992 -4 2c0 2 1.33301 3 4 3c3.33301 0 5.66602 -0.333008 6.99902 -1zM684.013 535.009c0 -8.66699 -3.66699 -13 -11 -13c-6 0 -11.667 3.83301 -17 11.5s-8 16.5 -8 26.5c0 9.33301 3.66699 14 11 14c6 0 11.667 -4 17 -12
s8 -17 8 -27zM392.013 384.009h-11c-8.66699 0 -13 3.66699 -13 11s4.33301 11 13 11h11v-22zM280.013 200.009h-5c-10 0 -15 5 -15 15c0 6 2.66699 9 8 9s8.33301 -1.66699 9 -5zM716.013 187.009c0 -8.66699 -3.66699 -13 -11 -13c-6 0 -11.667 3.83301 -17 11.5
s-8 16.5 -8 26.5c0 9.33301 3.66699 14 11 14c6 0 11.667 -4 17 -12s8 -17 8 -27zM393.013 182.009c0 -4.66699 -1.33301 -7 -4 -7h-5c-7.33301 0 -13.5 3.33301 -18.5 10s-7.5 14 -7.5 22c0 11.333 4.66699 17 14 17h6c2.66699 -0.666992 4.66699 -3 6 -7zM553.013 79.0088
c3.33301 0 3.33301 -3 0 -9c-3.33301 6 -3.33301 9 0 9zM352.013 64.0088h-3c-5.33301 0 -8 2.66699 -8 8c0 4 2.33301 6 7 6c2.66699 0 4 -1.33301 4 -4v-10zM417.013 64.0088c0 -11.333 -4 -17 -12 -17s-12 5.66699 -12 17c0 10.667 4 16 12 16s12 -5.33301 12 -16z" />
    <glyph glyph-name="ntilde" unicode="&#xf1;" horiz-adv-x="850" 
d="M424 -12c-103.333 0 -187.666 35.334 -252.999 106.001s-98 155.334 -98 254.001v2c0 98.667 33 183.667 99 255s150.667 107 254 107s187.666 -35.333 252.999 -106s98 -155.334 98 -254.001c0.666992 -0.666992 0.666992 -1.33398 0 -2.00098
c0 -98.667 -33 -183.667 -99 -255s-150.667 -107 -254 -107zM426 35.001c85.333 0 156.166 30.333 212.499 91s84.5 134.667 84.5 222v2c0 87.333 -28.5 161.666 -85.5 222.999s-128.167 92 -213.5 92s-156.166 -30.333 -212.499 -91s-84.5 -134.667 -84.5 -222v-2
c0 -87.333 28.5 -161.666 85.5 -222.999s128.167 -92 213.5 -92zM399 765.001l-107 103l61 30l88 -133h-42z" />
    <glyph glyph-name="ograve" unicode="&#xf2;" horiz-adv-x="760" 
d="M380 -11c-86 0 -155.333 26.332 -208 78.999s-79 127 -79 223v409h52v-404c0 -82 21 -145.833 63 -191.5s100 -68.5 174 -68.5c72.667 0 129.667 21.833 171 65.5s62 106.834 62 189.501v409h52v-403c0 -98 -26 -173.833 -78 -227.5s-121.667 -80.5 -209 -80.5z
M355 759.999l88 133l61 -30l-107 -103h-42z" />
    <glyph glyph-name="oacute" unicode="&#xf3;" horiz-adv-x="760" 
d="M380 -11c-86 0 -155.333 26.332 -208 78.999s-79 127 -79 223v409h52v-404c0 -82 21 -145.833 63 -191.5s100 -68.5 174 -68.5c72.667 0 129.667 21.833 171 65.5s62 106.834 62 189.501v409h52v-403c0 -98 -26 -173.833 -78 -227.5s-121.667 -80.5 -209 -80.5z
M260 759.999l100 122h40l100 -122h-47l-74 68l-74 -68h-45z" />
    <glyph glyph-name="ocircumflex" unicode="&#xf4;" horiz-adv-x="760" 
d="M380 -11c-86 0 -155.333 26.332 -208 78.999s-79 127 -79 223v409h52v-404c0 -82 21 -145.833 63 -191.5s100 -68.5 174 -68.5c72.667 0 129.667 21.833 171 65.5s62 106.834 62 189.501v409h52v-403c0 -98 -26 -173.833 -78 -227.5s-121.667 -80.5 -209 -80.5z
M363 759.999l-107 103l61 30l88 -133h-42z" />
    <glyph glyph-name="otilde" unicode="&#xf5;" horiz-adv-x="249" 
d="M100 0v510h49v-510h-49z" />
    <glyph glyph-name="odieresis" unicode="&#xf6;" 
d="M130 595l100 122h40l100 -122h-47l-74 68l-74 -68h-45z" />
    <glyph glyph-name="divide" unicode="&#xf7;" 
d="M136 586l-34 9c9.33301 34.667 20.5 58.834 33.5 72.501s29.833 20.5 50.5 20.5c13.333 0 35.333 -6.83301 66 -20.5s51.334 -20.5 62.001 -20.5c12 0 21.5 3.5 28.5 10.5s14.167 20.167 21.5 39.5l34 -9c-9.33301 -34.667 -20.5 -58.834 -33.5 -72.501
s-29.833 -20.5 -50.5 -20.5c-13.333 0 -35.333 6.83301 -66 20.5s-51.334 20.5 -62.001 20.5c-12 0 -21.5 -3.5 -28.5 -10.5s-14.167 -20.167 -21.5 -39.5z" />
    <glyph glyph-name="oslash" unicode="&#xf8;" 
d="M100 600v53h300v-53h-300z" />
    <glyph glyph-name="ugrave" unicode="&#xf9;" 
d="M250 593c-37.333 0 -68.168 11 -92.501 33s-37.833 52.333 -40.5 91h39c12.667 -48.667 44 -73 94 -73s81.333 24.333 94 73h39c-2.66699 -38.667 -16.167 -69 -40.5 -91s-55.166 -33 -92.499 -33z" />
    <glyph glyph-name="uacute" unicode="&#xfa;" 
d="M214 595v81h72v-81h-72z" />
    <glyph glyph-name="ucircumflex" unicode="&#xfb;" 
d="M250 593c-26 0 -48.833 9.16699 -68.5 27.5s-29.5 40.166 -29.5 65.499v2c0 25.333 9.83301 47.166 29.5 65.499s42.5 27.5 68.5 27.5s48.833 -9.16699 68.5 -27.5s29.5 -40.166 29.5 -65.499v-2c0 -25.333 -9.83301 -47.166 -29.5 -65.499s-42.5 -27.5 -68.5 -27.5z
M250 625c16.667 0 31.167 6 43.5 18s18.5 26.333 18.5 43v2c0 16.667 -6.16699 31 -18.5 43s-26.833 18 -43.5 18s-31.167 -6 -43.5 -18s-18.5 -26.333 -18.5 -43v-2c0 -16.667 6.16699 -31 18.5 -43s26.833 -18 43.5 -18z" />
    <glyph glyph-name="udieresis" unicode="&#xfc;" 
d="M217 -148l-55 26l90 132h43z" />
    <glyph glyph-name="yacute" unicode="&#xfd;" 
d="M254 595l89 133l55 -29l-101 -104h-43zM102 595l89 133l55 -29l-101 -104h-43z" />
    <glyph glyph-name="thorn" unicode="&#xfe;" 
d="M356 -164c-54.667 -2 -96.5 7 -125.5 27s-43.5 46.667 -43.5 80c0 22.667 4.66699 45 14 67h43c-4 -18 -6 -36.667 -6 -56c0 -54 39.333 -83 118 -87v-31z" />
    <glyph glyph-name="ydieresis" unicode="&#xff;" 
d="M230 595l-100 122h47l74 -68l74 68h45l-100 -122h-40z" />
    <glyph glyph-name="OE" unicode="&#x152;" horiz-adv-x="574" 
d="M248 -12c-52 0 -97.833 14.166 -137.5 42.499s-59.5 67.5 -59.5 117.5v2c0 52 20.333 92.667 61 122s94.667 44 162 44c57.333 0 113.666 -7.33301 168.999 -22v22c0 50.667 -14.667 89.334 -44 116.001s-70.666 40 -123.999 40s-106.666 -13.667 -159.999 -41l-18 43
c63.333 29.333 123.666 44 180.999 44c70 0 123.667 -18.667 161 -56c34.667 -34.667 52 -82.667 52 -144v-318h-48v85c-46 -64.667 -111 -97 -195 -97zM251 33.999c53.333 0 98.832 14.832 136.499 44.499s56.5 67.167 56.5 112.5v58c-60 15.333 -117.667 23 -173 23
c-53.333 0 -94.666 -10.833 -123.999 -32.5s-44 -50.5 -44 -86.5v-2c0 -35.333 14.5 -63.666 43.5 -84.999s63.833 -32 104.5 -32zM289.999 592.998c-26 0 -48.833 9.16699 -68.5 27.5s-29.5 40.166 -29.5 65.499v2c0 25.333 9.83301 47.166 29.5 65.499
s42.5 27.5 68.5 27.5s48.833 -9.16699 68.5 -27.5s29.5 -40.166 29.5 -65.499v-2c0 -25.333 -9.83301 -47.166 -29.5 -65.499s-42.5 -27.5 -68.5 -27.5zM289.999 624.998c16.667 0 31.167 6 43.5 18s18.5 26.333 18.5 43v2c0 16.667 -6.16699 31 -18.5 43
s-26.833 18 -43.5 18s-31.167 -6 -43.5 -18s-18.5 -26.333 -18.5 -43v-2c0 -16.667 6.16699 -31 18.5 -43s26.833 -18 43.5 -18z" />
    <glyph glyph-name="oe" unicode="&#x153;" horiz-adv-x="613" 
d="M287 -12c-63.333 0 -113.169 19.499 -149.502 58.499s-54.5 89.5 -54.5 151.5v312h49v-303c0 -53.333 14.333 -95.666 43 -126.999s68.334 -47 119.001 -47s92.834 17.167 126.501 51.5s50.5 77.833 50.5 130.5v295h49v-510h-49v95c-40.667 -71.333 -102 -107 -184 -107z
M276.997 589.999l88 133l61 -30l-107 -103h-42z" />
    <glyph glyph-name="Scaron" unicode="&#x160;" horiz-adv-x="574" 
d="M248 -12c-52 0 -97.833 14.166 -137.5 42.499s-59.5 67.5 -59.5 117.5v2c0 52 20.333 92.667 61 122s94.667 44 162 44c57.333 0 113.666 -7.33301 168.999 -22v22c0 50.667 -14.667 89.334 -44 116.001s-70.666 40 -123.999 40s-106.666 -13.667 -159.999 -41l-18 43
c63.333 29.333 123.666 44 180.999 44c70 0 123.667 -18.667 161 -56c34.667 -34.667 52 -82.667 52 -144v-318h-48v85c-46 -64.667 -111 -97 -195 -97zM251 33.999c53.333 0 98.832 14.832 136.499 44.499s56.5 67.167 56.5 112.5v58c-60 15.333 -117.667 23 -173 23
c-53.333 0 -94.666 -10.833 -123.999 -32.5s-44 -50.5 -44 -86.5v-2c0 -35.333 14.5 -63.666 43.5 -84.999s63.833 -32 104.5 -32zM336.999 594.998v80h69v-80h-69zM173.999 594.998v80h69v-80h-69z" />
    <glyph glyph-name="scaron" unicode="&#x161;" horiz-adv-x="640" 
d="M319 -12c-74.667 0 -136.834 26 -186.501 78s-74.5 114.333 -74.5 187v2c0 72.667 25.167 135.334 75.5 188.001s112.833 79 187.5 79s136.834 -26 186.501 -78s74.5 -114.333 74.5 -187v-2c0 -72.667 -25.167 -135.334 -75.5 -188.001s-112.833 -79 -187.5 -79zM321 34
c60 0 109.667 21.333 149 64s59 94.334 59 155.001v2c0 61.333 -20.333 113.5 -61 156.5s-90.334 64.5 -149.001 64.5c-60 0 -109.667 -21.333 -149 -64s-59 -94.334 -59 -155.001v-2c0 -61.333 20.333 -113.5 61 -156.5s90.334 -64.5 149.001 -64.5zM367 595v80h69v-80h-69
zM204 595v80h69v-80h-69z" />
    <glyph glyph-name="Ydieresis" unicode="&#x178;" horiz-adv-x="613" 
d="M287 -12c-63.333 0 -113.169 19.499 -149.502 58.499s-54.5 89.5 -54.5 151.5v312h49v-303c0 -53.333 14.333 -95.666 43 -126.999s68.334 -47 119.001 -47s92.834 17.167 126.501 51.5s50.5 77.833 50.5 130.5v295h49v-510h-49v95c-40.667 -71.333 -102 -107 -184 -107z
M354.997 594.999v80h69v-80h-69zM191.997 594.999v80h69v-80h-69z" />
    <glyph glyph-name="Zcaron" unicode="&#x17d;" horiz-adv-x="584" 
d="M308 -12c-68.667 0 -127.501 25 -176.501 75s-73.5 113.667 -73.5 191v2c0 74.667 23.167 137.667 69.5 189s103.833 77 172.5 77c70 0 126.5 -25.333 169.5 -76s64.5 -114.334 64.5 -191.001c0 -8 -0.333008 -14.667 -1 -20h-423
c4.66699 -61.333 26.167 -110.166 64.5 -146.499s83.5 -54.5 135.5 -54.5c66.667 0 125 26.667 175 80l34 -30c-59.333 -64 -129.666 -96 -210.999 -96zM109.999 279l370.999 0.000976562c-4 56 -21.667 103 -53 141s-74.666 57 -129.999 57
c-50 0 -92.667 -18.833 -128 -56.5s-55.333 -84.834 -60 -141.501zM256.998 595.001l88 133l61 -30l-107 -103h-42z" />
    <glyph glyph-name="zcaron" unicode="&#x17e;" horiz-adv-x="613" 
d="M287 -12c-63.333 0 -113.169 19.499 -149.502 58.499s-54.5 89.5 -54.5 151.5v312h49v-303c0 -53.333 14.333 -95.666 43 -126.999s68.334 -47 119.001 -47s92.834 17.167 126.501 51.5s50.5 77.833 50.5 130.5v295h49v-510h-49v95c-40.667 -71.333 -102 -107 -184 -107z
M187.997 594.999l100 122h40l100 -122h-47l-74 68l-74 -68h-45z" />
    <glyph glyph-name="florin" unicode="&#x192;" horiz-adv-x="670" 
d="M104 0v700h498v-48h-446v-275h401v-48h-401v-281h451v-48h-503zM309 765l88 133l61 -30l-107 -103h-42z" />
    <glyph glyph-name="circumflex" unicode="&#x2c6;" horiz-adv-x="574" 
d="M248 -12c-52 0 -97.833 14.166 -137.5 42.499s-59.5 67.5 -59.5 117.5v2c0 52 20.333 92.667 61 122s94.667 44 162 44c57.333 0 113.666 -7.33301 168.999 -22v22c0 50.667 -14.667 89.334 -44 116.001s-70.666 40 -123.999 40s-106.666 -13.667 -159.999 -41l-18 43
c63.333 29.333 123.666 44 180.999 44c70 0 123.667 -18.667 161 -56c34.667 -34.667 52 -82.667 52 -144v-318h-48v85c-46 -64.667 -111 -97 -195 -97zM251 33.999c53.333 0 98.832 14.832 136.499 44.499s56.5 67.167 56.5 112.5v58c-60 15.333 -117.667 23 -173 23
c-53.333 0 -94.666 -10.833 -123.999 -32.5s-44 -50.5 -44 -86.5v-2c0 -35.333 14.5 -63.666 43.5 -84.999s63.833 -32 104.5 -32zM263.999 594.998l-107 103l61 30l88 -133h-42z" />
    <glyph glyph-name="tilde" unicode="&#x2dc;" horiz-adv-x="640" 
d="M319 -12c-74.667 0 -136.834 26 -186.501 78s-74.5 114.333 -74.5 187v2c0 72.667 25.167 135.334 75.5 188.001s112.833 79 187.5 79s136.834 -26 186.501 -78s74.5 -114.333 74.5 -187v-2c0 -72.667 -25.167 -135.334 -75.5 -188.001s-112.833 -79 -187.5 -79zM321 34
c60 0 109.667 21.333 149 64s59 94.334 59 155.001v2c0 61.333 -20.333 113.5 -61 156.5s-90.334 64.5 -149.001 64.5c-60 0 -109.667 -21.333 -149 -64s-59 -94.334 -59 -155.001v-2c0 -61.333 20.333 -113.5 61 -156.5s90.334 -64.5 149.001 -64.5zM298 595l-107 103
l61 30l88 -133h-42z" />
    <glyph glyph-name="endash" unicode="&#x2013;" horiz-adv-x="613" 
d="M93 0l0.00292969 510.001h49v-95c40.667 71.333 102 107 184 107c63.333 0 113.166 -19.5 149.499 -58.5s54.5 -89.5 54.5 -151.5v-312h-49v303c0 53.333 -14.333 95.666 -43 126.999s-68.334 47 -119.001 47s-92.834 -17.167 -126.501 -51.5s-50.5 -77.833 -50.5 -130.5
v-295h-49zM197.003 586.001l-34 9c9.33301 34.667 20.5 58.834 33.5 72.501s29.833 20.5 50.5 20.5c12.667 0 34.334 -6.83301 65.001 -20.5s51.667 -20.5 63 -20.5c12 0 21.5 3.5 28.5 10.5s14.167 20.167 21.5 39.5l34 -9c-9.33301 -34.667 -20.5 -58.834 -33.5 -72.501
s-29.833 -20.5 -50.5 -20.5c-12.667 0 -34.334 6.83301 -65.001 20.5s-51.667 20.5 -63 20.5c-12 0 -21.5 -3.5 -28.5 -10.5s-14.167 -20.167 -21.5 -39.5z" />
    <glyph glyph-name="emdash" unicode="&#x2014;" horiz-adv-x="640" 
d="M319 -12c-74.667 0 -136.834 26 -186.501 78s-74.5 114.333 -74.5 187v2c0 72.667 25.167 135.334 75.5 188.001s112.833 79 187.5 79s136.834 -26 186.501 -78s74.5 -114.333 74.5 -187v-2c0 -72.667 -25.167 -135.334 -75.5 -188.001s-112.833 -79 -187.5 -79zM321 34
c60 0 109.667 21.333 149 64s59 94.334 59 155.001v2c0 61.333 -20.333 113.5 -61 156.5s-90.334 64.5 -149.001 64.5c-60 0 -109.667 -21.333 -149 -64s-59 -94.334 -59 -155.001v-2c0 -61.333 20.333 -113.5 61 -156.5s90.334 -64.5 149.001 -64.5zM300 595l88 133l61 -30
l-107 -103h-42z" />
    <glyph glyph-name="quoteleft" unicode="&#x2018;" horiz-adv-x="584" 
d="M308 -12c-68.667 0 -127.501 25 -176.501 75s-73.5 113.667 -73.5 191v2c0 74.667 23.167 137.667 69.5 189s103.833 77 172.5 77c70 0 126.5 -25.333 169.5 -76s64.5 -114.334 64.5 -191.001c0 -8 -0.333008 -14.667 -1 -20h-423
c4.66699 -61.333 26.167 -110.166 64.5 -146.499s83.5 -54.5 135.5 -54.5c66.667 0 125 26.667 175 80l34 -30c-59.333 -64 -129.666 -96 -210.999 -96zM109.999 279l370.999 0.000976562c-4 56 -21.667 103 -53 141s-74.666 57 -129.999 57
c-50 0 -92.667 -18.833 -128 -56.5s-55.333 -84.834 -60 -141.501zM343.998 595.001v80h69v-80h-69zM180.998 595.001v80h69v-80h-69z" />
    <glyph glyph-name="quoteright" unicode="&#x2019;" horiz-adv-x="249" 
d="M100 0v510h49v-510h-49zM105 595l88 133l61 -30l-107 -103h-42z" />
    <glyph glyph-name="quotesinglbase" unicode="&#x201a;" horiz-adv-x="738" 
d="M367 -148l-54.9971 26l76 111c-91.333 8.66699 -166.666 46.834 -225.999 114.501s-89 149.167 -89 244.5v2c0 100 33.333 185.333 100 256s150 106 250 106c58 0 107.833 -9.5 149.5 -28.5s82.5 -46.833 122.5 -83.5l-37 -38c-70.667 68.667 -149.334 103 -236.001 103
c-84 0 -154.167 -30.167 -210.5 -90.5s-84.5 -134.5 -84.5 -222.5v-2c0 -88.667 28.5 -163.334 85.5 -224.001s127.167 -91 210.5 -91c48.667 0 91.667 9 129 27s74.666 45.333 111.999 82l35 -34c-38.667 -38 -78.834 -67.333 -120.501 -88s-89.834 -32 -144.501 -34z" />
    <glyph glyph-name="quotedblleft" unicode="&#x201c;" horiz-adv-x="249" 
d="M100 0v510h49v-510h-49zM102 595l-107 103l61 30l88 -133h-42z" />
    <glyph glyph-name="quotedblright" unicode="&#x201d;" horiz-adv-x="249" 
d="M100 0v510h49v-510h-49zM4 595l100 122h40l100 -122h-47l-74 68l-74 -68h-45z" />
    <glyph glyph-name="quotedblbase" unicode="&#x201e;" horiz-adv-x="790" 
d="M104 0v700h49l483 -609v609h50v-700h-39l-493 622v-622h-50zM281 756l-34 9c9.33301 34.667 20.5 58.834 33.5 72.501s29.833 20.5 50.5 20.5c12.667 0 34.334 -6.83301 65.001 -20.5s51.667 -20.5 63 -20.5c12 0 21.5 3.5 28.5 10.5s14.167 20.167 21.5 39.5l34 -9
c-9.33301 -34.667 -20.5 -58.834 -33.5 -72.501s-29.833 -20.5 -50.5 -20.5c-12.667 0 -34.334 6.83301 -65.001 20.5s-51.667 20.5 -63 20.5c-12 0 -21.5 -3.5 -28.5 -10.5s-14.167 -20.167 -21.5 -39.5z" />
    <glyph glyph-name="dagger" unicode="&#x2020;" horiz-adv-x="760" 
d="M380 -11c-86 0 -155.333 26.332 -208 78.999s-79 127 -79 223v409h52v-404c0 -82 21 -145.833 63 -191.5s100 -68.5 174 -68.5c72.667 0 129.667 21.833 171 65.5s62 106.834 62 189.501v409h52v-403c0 -98 -26 -173.833 -78 -227.5s-121.667 -80.5 -209 -80.5z
M427 759.999v80h69v-80h-69zM264 759.999v80h69v-80h-69z" />
    <glyph glyph-name="daggerdbl" unicode="&#x2021;" horiz-adv-x="574" 
d="M248 -12c-52 0 -97.833 14.166 -137.5 42.499s-59.5 67.5 -59.5 117.5v2c0 52 20.333 92.667 61 122s94.667 44 162 44c57.333 0 113.666 -7.33301 168.999 -22v22c0 50.667 -14.667 89.334 -44 116.001s-70.666 40 -123.999 40s-106.666 -13.667 -159.999 -41l-18 43
c63.333 29.333 123.666 44 180.999 44c70 0 123.667 -18.667 161 -56c34.667 -34.667 52 -82.667 52 -144v-318h-48v85c-46 -64.667 -111 -97 -195 -97zM251 33.999c53.333 0 98.832 14.832 136.499 44.499s56.5 67.167 56.5 112.5v58c-60 15.333 -117.667 23 -173 23
c-53.333 0 -94.666 -10.833 -123.999 -32.5s-44 -50.5 -44 -86.5v-2c0 -35.333 14.5 -63.666 43.5 -84.999s63.833 -32 104.5 -32zM255.999 594.998l88 133l61 -30l-107 -103h-42z" />
    <glyph glyph-name="bullet" unicode="&#x2022;" horiz-adv-x="249" 
d="M100 0v510h49v-510h-49zM171 595v80h69v-80h-69zM8 595v80h69v-80h-69z" />
    <glyph glyph-name="ellipsis" unicode="&#x2026;" horiz-adv-x="850" 
d="M424 -12c-103.333 0 -187.666 35.334 -252.999 106.001s-98 155.334 -98 254.001v2c0 98.667 33 183.667 99 255s150.667 107 254 107s187.666 -35.333 252.999 -106s98 -155.334 98 -254.001c0.666992 -0.666992 0.666992 -1.33398 0 -2.00098
c0 -98.667 -33 -183.667 -99 -255s-150.667 -107 -254 -107zM426 35.001c85.333 0 156.166 30.333 212.499 91s84.5 134.667 84.5 222v2c0 87.333 -28.5 161.666 -85.5 222.999s-128.167 92 -213.5 92s-156.166 -30.333 -212.499 -91s-84.5 -134.667 -84.5 -222v-2
c0 -87.333 28.5 -161.666 85.5 -222.999s128.167 -92 213.5 -92zM472 765.001v80h69v-80h-69zM309 765.001v80h69v-80h-69z" />
    <glyph glyph-name="perthousand" unicode="&#x2030;" horiz-adv-x="574" 
d="M248 -12c-52 0 -97.833 14.166 -137.5 42.499s-59.5 67.5 -59.5 117.5v2c0 52 20.333 92.667 61 122s94.667 44 162 44c57.333 0 113.666 -7.33301 168.999 -22v22c0 50.667 -14.667 89.334 -44 116.001s-70.666 40 -123.999 40s-106.666 -13.667 -159.999 -41l-18 43
c63.333 29.333 123.666 44 180.999 44c70 0 123.667 -18.667 161 -56c34.667 -34.667 52 -82.667 52 -144v-318h-48v85c-46 -64.667 -111 -97 -195 -97zM251 33.999c53.333 0 98.832 14.832 136.499 44.499s56.5 67.167 56.5 112.5v58c-60 15.333 -117.667 23 -173 23
c-53.333 0 -94.666 -10.833 -123.999 -32.5s-44 -50.5 -44 -86.5v-2c0 -35.333 14.5 -63.666 43.5 -84.999s63.833 -32 104.5 -32zM169.999 594.998l100 122h40l100 -122h-47l-74 68l-74 -68h-45z" />
    <glyph glyph-name="guilsinglleft" unicode="&#x2039;" horiz-adv-x="574" 
d="M248 -12c-52 0 -97.833 14.166 -137.5 42.499s-59.5 67.5 -59.5 117.5v2c0 52 20.333 92.667 61 122s94.667 44 162 44c57.333 0 113.666 -7.33301 168.999 -22v22c0 50.667 -14.667 89.334 -44 116.001s-70.666 40 -123.999 40s-106.666 -13.667 -159.999 -41l-18 43
c63.333 29.333 123.666 44 180.999 44c70 0 123.667 -18.667 161 -56c34.667 -34.667 52 -82.667 52 -144v-318h-48v85c-46 -64.667 -111 -97 -195 -97zM251 33.999c53.333 0 98.832 14.832 136.499 44.499s56.5 67.167 56.5 112.5v58c-60 15.333 -117.667 23 -173 23
c-53.333 0 -94.666 -10.833 -123.999 -32.5s-44 -50.5 -44 -86.5v-2c0 -35.333 14.5 -63.666 43.5 -84.999s63.833 -32 104.5 -32zM175.999 585.998l-33.999 9c9.33301 34.667 20.5 58.834 33.5 72.501s29.833 20.5 50.5 20.5c12.667 0 34.5 -6.83301 65.5 -20.5
s51.833 -20.5 62.5 -20.5c12 0 21.5 3.5 28.5 10.5s14.167 20.167 21.5 39.5l34 -9c-9.33301 -34.667 -20.5 -58.834 -33.5 -72.501s-29.833 -20.5 -50.5 -20.5c-12.667 0 -34.334 6.83301 -65.001 20.5s-51.667 20.5 -63 20.5c-12 0 -21.5 -3.5 -28.5 -10.5
s-14.167 -20.167 -21.5 -39.5z" />
    <glyph glyph-name="guilsinglright" unicode="&#x203a;" horiz-adv-x="640" 
d="M319 -12c-74.667 0 -136.834 26 -186.501 78s-74.5 114.333 -74.5 187v2c0 72.667 25.167 135.334 75.5 188.001s112.833 79 187.5 79s136.834 -26 186.501 -78s74.5 -114.333 74.5 -187v-2c0 -72.667 -25.167 -135.334 -75.5 -188.001s-112.833 -79 -187.5 -79zM321 34
c60 0 109.667 21.333 149 64s59 94.334 59 155.001v2c0 61.333 -20.333 113.5 -61 156.5s-90.334 64.5 -149.001 64.5c-60 0 -109.667 -21.333 -149 -64s-59 -94.334 -59 -155.001v-2c0 -61.333 20.333 -113.5 61 -156.5s90.334 -64.5 149.001 -64.5zM206 586l-34 9
c9.33301 34.667 20.5 58.834 33.5 72.501s29.833 20.5 50.5 20.5c13.333 0 35.333 -6.83301 66 -20.5s51.334 -20.5 62.001 -20.5c12 0 21.5 3.5 28.5 10.5s14.167 20.167 21.5 39.5l34 -9c-9.33301 -34.667 -20.5 -58.834 -33.5 -72.501s-29.833 -20.5 -50.5 -20.5
c-13.333 0 -35.333 6.83301 -66 20.5s-51.334 20.5 -62.001 20.5c-12 0 -21.5 -3.5 -28.5 -10.5s-14.167 -20.167 -21.5 -39.5z" />
    <glyph glyph-name="Euro" unicode="&#x20ac;" horiz-adv-x="790" 
d="M44 0l326 705h50l326 -705h-57l-89 196h-413l-89 -196h-54zM209 243h369l-184 405zM442 765v80h69v-80h-69zM279 765v80h69v-80h-69z" />
    <glyph glyph-name="trademark" unicode="&#x2122;" horiz-adv-x="640" 
d="M319 -12c-74.667 0 -136.834 26 -186.501 78s-74.5 114.333 -74.5 187v2c0 72.667 25.167 135.334 75.5 188.001s112.833 79 187.5 79s136.834 -26 186.501 -78s74.5 -114.333 74.5 -187v-2c0 -72.667 -25.167 -135.334 -75.5 -188.001s-112.833 -79 -187.5 -79zM321 34
c60 0 109.667 21.333 149 64s59 94.334 59 155.001v2c0 61.333 -20.333 113.5 -61 156.5s-90.334 64.5 -149.001 64.5c-60 0 -109.667 -21.333 -149 -64s-59 -94.334 -59 -155.001v-2c0 -61.333 20.333 -113.5 61 -156.5s90.334 -64.5 149.001 -64.5zM200 595l100 122h40
l100 -122h-47l-74 68l-74 -68h-45z" />
    <glyph glyph-name="nonmarkingreturn" horiz-adv-x="333" 
 />
    <glyph glyph-name="NameMe.129" horiz-adv-x="790" 
d="M44 0l312.998 676.999c-17.333 8 -31.666 19.667 -42.999 35s-17 32.333 -17 51v2c0 25.333 9.83301 47.166 29.5 65.499s42.5 27.5 68.5 27.5s48.833 -9.16699 68.5 -27.5s29.5 -40.166 29.5 -65.499v-2c0 -18.667 -5.66699 -35.667 -17 -51
s-25.666 -26.666 -42.999 -33.999l313 -678h-57l-89 196h-413l-89 -196h-54zM394.998 701.999c16.667 0 31.167 6 43.5 18s18.5 26.333 18.5 43v2c0 16.667 -6.16699 31 -18.5 43s-26.833 18 -43.5 18s-31.167 -6 -43.5 -18s-18.5 -26.333 -18.5 -43v-2
c0 -16.667 6.16699 -31 18.5 -43s26.833 -18 43.5 -18zM208.998 242.999h369l-184 405z" />
    <glyph glyph-name="NameMe.141" horiz-adv-x="571" 
d="M263 -148l-55.001 25.999l76 112c-64.667 8.66699 -118.5 38.167 -161.5 88.5s-64.5 108.5 -64.5 174.5v2c0 72 25.333 134.5 76 187.5s112 79.5 184 79.5c76 0 144 -31.333 204 -94l-35 -36c-54.667 56 -111.334 84 -170.001 84c-58 0 -106.833 -21.167 -146.5 -63.5
s-59.5 -94.166 -59.5 -155.499v-2c0 -61.333 20.333 -113.5 61 -156.5s90.334 -64.5 149.001 -64.5c63.333 0 120.333 28.333 171 85l34 -30c-57.333 -64 -122.666 -97.667 -195.999 -101z" />
    <glyph glyph-name="NameMe.143" horiz-adv-x="584" 
d="M308 -12c-68.667 0 -127.501 25 -176.501 75s-73.5 113.667 -73.5 191v2c0 74.667 23.167 137.667 69.5 189s103.833 77 172.5 77c70 0 126.5 -25.333 169.5 -76s64.5 -114.334 64.5 -191.001c0 -8 -0.333008 -14.667 -1 -20h-423
c4.66699 -61.333 26.167 -110.166 64.5 -146.499s83.5 -54.5 135.5 -54.5c66.667 0 125 26.667 175 80l34 -30c-59.333 -64 -129.666 -96 -210.999 -96zM109.999 279l370.999 0.000976562c-4 56 -21.667 103 -53 141s-74.666 57 -129.999 57
c-50 0 -92.667 -18.833 -128 -56.5s-55.333 -84.834 -60 -141.501zM285.998 595.001l-107 103l61 30l88 -133h-42z" />
    <glyph glyph-name="NameMe.144" horiz-adv-x="584" 
d="M308 -12c-68.667 0 -127.501 25 -176.501 75s-73.5 113.667 -73.5 191v2c0 74.667 23.167 137.667 69.5 189s103.833 77 172.5 77c70 0 126.5 -25.333 169.5 -76s64.5 -114.334 64.5 -191.001c0 -8 -0.333008 -14.667 -1 -20h-423
c4.66699 -61.333 26.167 -110.166 64.5 -146.499s83.5 -54.5 135.5 -54.5c66.667 0 125 26.667 175 80l34 -30c-59.333 -64 -129.666 -96 -210.999 -96zM109.999 279l370.999 0.000976562c-4 56 -21.667 103 -53 141s-74.666 57 -129.999 57
c-50 0 -92.667 -18.833 -128 -56.5s-55.333 -84.834 -60 -141.501zM176.998 595.001l100 122h40l100 -122h-47l-74 68l-74 -68h-45z" />
    <glyph glyph-name="NameMe.157" horiz-adv-x="613" 
d="M287 -12c-63.333 0 -113.169 19.499 -149.502 58.499s-54.5 89.5 -54.5 151.5v312h49v-303c0 -53.333 14.333 -95.666 43 -126.999s68.334 -47 119.001 -47s92.834 17.167 126.501 51.5s50.5 77.833 50.5 130.5v295h49v-510h-49v95c-40.667 -71.333 -102 -107 -184 -107z
M288.997 589.999l-107 103l61 30l88 -133h-42z" />
  </font>
</defs></svg>
